# This file uses centimeters as units for non-parametric coordinates.

g default
v 0.305382 0.000000 0.179818
v -0.000000 -0.000000 0.176400
v -0.000000 -0.000000 -0.061858
v 0.828926 0.000000 0.059179
v 1.179934 0.000000 0.249809
v 0.849285 -0.013791 0.681872
v 0.836045 0.000000 -0.192378
v 1.055784 0.000000 -0.188759
v -0.000000 -0.000000 -0.192378
v 0.513257 0.000000 -0.560754
v 0.908911 0.000000 -0.560754
v -0.000000 -0.000000 -0.560754
v -0.000000 -0.000000 -0.772800
v 0.513257 -0.004752 -1.060859
v 0.812323 0.000000 -0.809704
v -0.305382 -0.000000 0.179818
v -0.000000 -0.000000 0.176400
v -0.000000 -0.000000 -0.061858
v -0.828927 -0.000000 0.059179
v -1.179934 -0.000000 0.249809
v -0.849285 -0.013791 0.681872
v -1.055784 -0.000000 -0.188759
v -0.836045 -0.000000 -0.192378
v -0.000000 -0.000000 -0.192378
v -0.513257 -0.000000 -0.560754
v -0.908911 -0.000000 -0.560754
v -0.000000 0.000000 -0.560754
v -0.000000 0.000000 -0.772800
v -0.513257 -0.004752 -1.060859
v -0.812323 -0.000000 -0.809704
v 0.305382 0.389081 0.179818
v -0.000000 0.389081 0.176400
v 1.179934 0.389081 0.249809
v 0.849285 0.375290 0.681872
v 1.055784 0.389081 -0.188759
v 0.908911 0.389081 -0.560754
v -0.000000 0.389081 -0.772800
v 0.513257 0.384329 -1.060859
v 0.812323 0.389081 -0.809704
v -0.305382 0.389081 0.179818
v -0.000000 0.389081 0.176400
v -1.179934 0.389081 0.249809
v -0.849285 0.375290 0.681872
v -1.055784 0.389081 -0.188759
v -0.908911 0.389081 -0.560754
v -0.000000 0.389081 -0.772800
v -0.513257 0.384329 -1.060859
v -0.812323 0.389081 -0.809704
vt 0.562851 0.496351
vt 0.558559 0.383146
vt 0.629391 0.384170
vt 0.600167 0.628874
vt 0.554139 0.735830
vt 0.442655 0.604627
vt 0.664124 0.674050
vt 0.663975 0.628726
vt 0.662951 0.385193
vt 0.774410 0.496550
vt 0.773450 0.604344
vt 0.775433 0.385193
vt 0.797976 0.387240
vt 0.883902 0.494503
vt 0.822128 0.558252
vt 0.559781 0.271989
vt 0.602110 0.110092
vt 0.629391 0.384170
vt 0.558559 0.383146
vt 0.445725 0.164736
vt 0.552740 -0.000271
vt 0.666152 0.062933
vt 0.664519 0.113206
vt 0.662951 0.385193
vt 0.773516 0.162281
vt 0.774410 0.272813
vt 0.775433 0.385193
vt 0.882878 0.274860
vt 0.797976 0.387240
vt 0.825097 0.208383
vt 0.231917 0.727869
vt 0.231917 0.771350
vt 0.176520 0.771350
vt 0.176520 0.727869
vt 0.233881 0.848792
vt 0.178483 0.848792
vt 0.231917 0.895870
vt 0.176520 0.895870
vt 0.174079 0.727869
vt 0.174079 0.790313
vt 0.118681 0.790313
vt 0.118681 0.727869
vt 0.174079 0.843278
vt 0.118681 0.843278
vt 0.174079 0.878724
vt 0.118681 0.878724
vt 0.174755 0.914484
vt 0.119358 0.914484
vt 0.260165 0.896900
vt 0.259489 0.969978
vt 0.204091 0.969978
vt 0.204767 0.896900
vt 0.291265 0.852389
vt 0.291265 0.895870
vt 0.235867 0.895870
vt 0.235867 0.852389
vt 0.293229 0.774947
vt 0.237831 0.774947
vt 0.291265 0.727869
vt 0.235867 0.727869
vt 0.061469 0.790313
vt 0.061469 0.727869
vt 0.116866 0.727869
vt 0.116866 0.790313
vt 0.061469 0.843278
vt 0.116866 0.843278
vt 0.061469 0.878724
vt 0.116866 0.878724
vt 0.060792 0.914484
vt 0.116190 0.914484
vt 0.317146 0.896900
vt 0.317823 0.969978
vt 0.262425 0.969978
vt 0.261749 0.896900
vn 0.000000 -1.000000 -0.000000
vn 0.000000 -1.000000 -0.000000
vn 0.000000 -1.000000 -0.000000
vn 0.000000 -1.000000 -0.000000
vn 0.001777 -0.999752 -0.022201
vn 0.001777 -0.999752 -0.022201
vn 0.001777 -0.999752 -0.022201
vn 0.001777 -0.999752 -0.022201
vn 0.000000 -1.000000 -0.000000
vn 0.000000 -1.000000 -0.000000
vn 0.000000 -1.000000 -0.000000
vn 0.000000 -1.000000 -0.000000
vn 0.000000 -1.000000 -0.000000
vn 0.000000 -1.000000 -0.000000
vn 0.000000 -1.000000 -0.000000
vn 0.000000 -1.000000 -0.000000
vn 0.000000 -1.000000 -0.000000
vn 0.000000 -1.000000 -0.000000
vn 0.000000 -1.000000 -0.000000
vn 0.000000 -1.000000 -0.000000
vn 0.000000 -1.000000 -0.000000
vn 0.000000 -1.000000 -0.000000
vn 0.000000 -1.000000 -0.000000
vn 0.000000 -1.000000 -0.000000
vn -0.002757 -0.999974 0.006673
vn -0.002757 -0.999974 0.006673
vn -0.002757 -0.999974 0.006673
vn -0.002757 -0.999974 0.006673
vn 0.004769 -0.999972 0.005729
vn 0.004769 -0.999972 0.005729
vn 0.004769 -0.999972 0.005729
vn 0.004769 -0.999972 0.005729
vn 0.000000 -1.000000 0.000000
vn 0.000000 -1.000000 0.000000
vn 0.000000 -1.000000 0.000000
vn 0.000000 -1.000000 0.000000
vn -0.001777 -0.999752 -0.022201
vn -0.001777 -0.999752 -0.022201
vn -0.001777 -0.999752 -0.022201
vn -0.001777 -0.999752 -0.022201
vn 0.000000 -1.000000 0.000000
vn 0.000000 -1.000000 0.000000
vn 0.000000 -1.000000 0.000000
vn 0.000000 -1.000000 0.000000
vn 0.000000 -1.000000 0.000000
vn 0.000000 -1.000000 0.000000
vn 0.000000 -1.000000 0.000000
vn 0.000000 -1.000000 0.000000
vn 0.000000 -1.000000 -0.000000
vn 0.000000 -1.000000 -0.000000
vn 0.000000 -1.000000 -0.000000
vn 0.000000 -1.000000 -0.000000
vn 0.000000 -1.000000 -0.000000
vn 0.000000 -1.000000 -0.000000
vn 0.000000 -1.000000 -0.000000
vn 0.000000 -1.000000 -0.000000
vn 0.002757 -0.999974 0.006673
vn 0.002757 -0.999974 0.006673
vn 0.002757 -0.999974 0.006673
vn 0.002757 -0.999974 0.006673
vn -0.004769 -0.999972 0.005729
vn -0.004769 -0.999972 0.005729
vn -0.004769 -0.999972 0.005729
vn -0.004769 -0.999972 0.005729
vn -0.011192 -0.000000 0.999937
vn -0.011192 -0.000000 0.999937
vn -0.011192 -0.000000 0.999937
vn -0.011192 -0.000000 0.999937
vn 0.794138 0.000000 0.607737
vn 0.794138 0.000000 0.607737
vn 0.794138 0.000000 0.607737
vn 0.794138 0.000000 0.607737
vn -0.678272 -0.000000 0.734811
vn -0.678272 -0.000000 0.734811
vn -0.678272 -0.000000 0.734811
vn -0.678272 -0.000000 0.734811
vn 0.962191 0.000000 -0.272377
vn 0.962191 0.000000 -0.272377
vn 0.962191 0.000000 -0.272377
vn 0.962191 0.000000 -0.272377
vn 0.930127 0.000000 -0.367237
vn 0.930127 0.000000 -0.367237
vn 0.930127 0.000000 -0.367237
vn 0.930127 0.000000 -0.367237
vn -0.489425 -0.000000 -0.872046
vn -0.489425 -0.000000 -0.872045
vn -0.489425 -0.000000 -0.872046
vn -0.489425 -0.000000 -0.872045
vn 0.643101 0.000000 -0.765781
vn 0.643101 0.000000 -0.765781
vn 0.643101 0.000000 -0.765781
vn 0.643101 0.000000 -0.765781
vn 0.932290 0.000000 -0.361713
vn 0.932290 0.000000 -0.361713
vn 0.932290 0.000000 -0.361713
vn 0.932290 0.000000 -0.361713
vn 0.011192 0.000000 0.999937
vn 0.011192 0.000000 0.999937
vn 0.011192 0.000000 0.999937
vn 0.011192 0.000000 0.999937
vn -0.794138 -0.000000 0.607737
vn -0.794138 -0.000000 0.607737
vn -0.794138 -0.000000 0.607737
vn -0.794138 -0.000000 0.607737
vn 0.678272 0.000000 0.734811
vn 0.678272 0.000000 0.734811
vn 0.678272 0.000000 0.734811
vn 0.678272 0.000000 0.734811
vn -0.962191 -0.000000 -0.272377
vn -0.962191 -0.000000 -0.272377
vn -0.962191 -0.000000 -0.272377
vn -0.962191 -0.000000 -0.272377
vn -0.930127 -0.000000 -0.367237
vn -0.930127 -0.000000 -0.367237
vn -0.930127 -0.000000 -0.367237
vn -0.930127 -0.000000 -0.367237
vn 0.489425 0.000000 -0.872045
vn 0.489425 0.000000 -0.872045
vn 0.489425 0.000000 -0.872045
vn 0.489425 0.000000 -0.872045
vn -0.643101 -0.000000 -0.765781
vn -0.643101 -0.000000 -0.765781
vn -0.643101 -0.000000 -0.765781
vn -0.643101 -0.000000 -0.765781
vn -0.932290 -0.000000 -0.361713
vn -0.932290 -0.000000 -0.361713
vn -0.932290 -0.000000 -0.361713
vn -0.932290 -0.000000 -0.361713
s off
g polySurface1
f 1/1/1 2/2/2 3/3/3 4/4/4
f 1/1/5 4/4/6 5/5/7 6/6/8
f 8/7/9 5/5/10 4/4/11 7/8/12
f 9/9/13 7/8/14 4/4/15 3/3/16
f 7/8/17 10/10/18 11/11/19 8/7/20
f 12/12/21 10/10/22 7/8/23 9/9/24
f 10/10/25 12/12/26 13/13/27 14/14/28
f 14/14/29 15/15/30 11/11/31 10/10/32
f 16/16/33 19/17/34 18/18/35 17/19/36
f 16/16/37 21/20/38 20/21/39 19/17/40
f 22/22/41 23/23/42 19/17/43 20/21/44
f 24/24/45 18/18/46 19/17/47 23/23/48
f 23/23/49 22/22/50 26/25/51 25/26/52
f 27/27/53 24/24/54 23/23/55 25/26/56
f 25/26/57 29/28/58 28/29/59 27/27/60
f 29/28/61 25/26/62 26/25/63 30/30/64
f 2/31/65 1/32/66 31/33/67 32/34/68
f 6/35/69 5/37/70 33/38/71 34/36/72
f 1/32/73 6/35/74 34/36/75 31/33/76
f 5/39/77 8/40/78 35/41/79 33/42/80
f 8/40/81 11/43/82 36/44/83 35/41/84
f 14/49/85 13/50/86 37/51/87 38/52/88
f 15/45/89 14/47/90 38/48/91 39/46/92
f 11/43/93 15/45/94 39/46/95 36/44/96
f 16/53/97 17/54/98 41/55/99 40/56/100
f 20/59/101 21/57/102 43/58/103 42/60/104
f 21/57/105 16/53/106 40/56/107 43/58/108
f 22/61/109 20/62/110 42/63/111 44/64/112
f 26/65/113 22/61/114 44/64/115 45/66/116
f 28/71/117 29/72/118 47/73/119 46/74/120
f 29/69/121 30/67/122 48/68/123 47/70/124
f 30/67/125 26/65/126 45/66/127 48/68/128
