# This file uses centimeters as units for non-parametric coordinates.

mtllib InvadersFromSpace-Ship.mtl
g default
v -0.115435 -0.119252 0.501832
v -0.060942 -0.119252 0.501832
v 0.000000 -0.119252 0.501832
v 0.060942 -0.119252 0.501832
v 0.115435 -0.119252 0.501832
v -0.157769 -0.067340 0.565163
v -0.071099 -0.067340 0.786136
v 0.000000 -0.067340 0.841702
v 0.071099 -0.067340 0.786136
v 0.157769 -0.067340 0.565163
v -0.146598 0.028435 0.520496
v -0.071099 0.067340 0.605499
v 0.000000 0.067340 0.605499
v 0.071099 0.067340 0.605499
v 0.146598 0.028435 0.520496
v -0.157246 0.114530 0.460728
v 0.157246 0.114530 0.460728
v -0.157246 0.137799 0.324603
v -0.071099 0.178752 0.324603
v 0.000000 0.199229 0.324603
v 0.071099 0.178752 0.324603
v 0.157246 0.137799 0.324603
v -0.213958 0.161068 0.000000
v -0.096741 0.202021 0.000000
v 0.000000 0.222498 0.000000
v 0.096741 0.202021 0.000000
v 0.213958 0.161068 0.000000
v -0.213958 0.161068 -0.324603
v -0.096741 0.202021 -0.324603
v 0.000000 0.222498 -0.324603
v 0.096741 0.202021 -0.324603
v 0.213958 0.161068 -0.324603
v -0.213958 0.161068 -0.649206
v -0.096741 0.202021 -0.649206
v 0.000000 0.222498 -0.649206
v 0.096741 0.202021 -0.649206
v 0.213958 0.161068 -0.649206
v -0.302007 0.028435 -0.649206
v -0.096741 0.067340 -0.649206
v 0.000000 0.067340 -0.649206
v 0.096741 0.067340 -0.649206
v 0.302007 0.028435 -0.649206
v -0.273340 -0.067340 -0.649206
v -0.096741 -0.067340 -0.649206
v 0.000000 -0.067340 -0.649206
v 0.096741 -0.067340 -0.649206
v 0.273340 -0.067340 -0.649206
v -0.183243 -0.141522 -0.649206
v -0.096741 -0.141522 -0.649206
v 0.000000 -0.141522 -0.649206
v 0.096741 -0.141522 -0.649206
v 0.183243 -0.141522 -0.649206
v -0.183243 -0.141522 -0.324603
v -0.096741 -0.141522 -0.324603
v 0.000000 -0.141522 -0.324603
v 0.096741 -0.141522 -0.324603
v 0.183243 -0.141522 -0.324603
v -0.183243 -0.141522 0.000000
v -0.096741 -0.141522 0.000000
v 0.000000 -0.141522 0.000000
v 0.096741 -0.141522 0.000000
v 0.183243 -0.141522 0.000000
v -0.134673 -0.141522 0.324603
v -0.071099 -0.141522 0.324603
v 0.000000 -0.141522 0.324603
v 0.071099 -0.141522 0.324603
v 0.134673 -0.141522 0.324603
v 0.273340 -0.067340 -0.324603
v 0.273340 -0.067340 0.000000
v 0.200888 -0.067340 0.324603
v 0.302007 0.028435 0.000000
v 0.221957 0.028435 0.324603
v -0.273340 -0.067340 -0.324603
v -0.273340 -0.067340 0.000000
v -0.200888 -0.067340 0.324603
v -0.302007 0.028435 0.000000
v -0.221957 0.028435 0.324603
v -0.146598 0.028435 0.520496
v -0.071099 0.067340 0.605499
v -0.157246 0.114530 0.460728
v -0.000000 0.067340 0.605499
v 0.071099 0.067340 0.605499
v 0.146598 0.028435 0.520496
v 0.157246 0.114530 0.460728
v -0.071099 0.178752 0.324603
v -0.157246 0.137799 0.324603
v 0.000000 0.199229 0.324603
v 0.071099 0.178752 0.324603
v 0.157246 0.137799 0.324603
v -0.096741 -0.141522 0.000000
v 0.000000 -0.141522 0.000000
v 0.000000 -0.141522 0.324603
v -0.071099 -0.141522 0.324603
v -0.088999 0.048658 0.507365
v -0.043164 0.078350 0.572238
v -0.043164 0.145619 0.461752
v -0.095464 0.114365 0.461752
v 0.000000 0.078350 0.572238
v 0.000000 0.161247 0.461752
v 0.043164 0.078350 0.572238
v 0.043164 0.145619 0.461752
v 0.088999 0.048658 0.507365
v 0.095464 0.114365 0.461752
v -0.043164 0.163378 0.357864
v -0.095464 0.132123 0.357864
v 0.000000 0.179005 0.357864
v 0.043164 0.163378 0.357864
v 0.095464 0.132123 0.357864
v 0.093456 0.047094 0.508381
v 0.045325 0.077498 0.574812
v -0.000000 0.077498 0.574812
v -0.045325 0.077498 0.574812
v -0.093456 0.047094 0.508381
v -0.100244 0.114378 0.461673
v -0.100244 0.132562 0.355290
v -0.045325 0.164567 0.355290
v 0.000000 0.180570 0.355290
v 0.045325 0.164567 0.355290
v 0.100244 0.132562 0.355290
v 0.100244 0.114378 0.461673
v 0.090273 0.049104 0.512774
v 0.141606 0.031008 0.526117
v 0.141606 0.031008 0.526117
v 0.152037 -0.067340 0.570721
v 0.111831 -0.119252 0.501832
v 0.130468 -0.141522 0.324603
v 0.177522 -0.141522 0.000000
v 0.177522 -0.141522 -0.324603
v 0.177522 -0.141522 -0.649206
v 0.261661 -0.067340 -0.649206
v 0.288433 0.031008 -0.649206
v 0.206206 0.163776 -0.649206
v 0.206206 0.163776 -0.324603
v 0.206206 0.163776 0.000000
v 0.151549 0.140507 0.324603
v 0.151549 0.140507 0.324603
v 0.096613 0.134679 0.355290
v 0.092005 0.134190 0.357864
v 0.092005 0.116432 0.461752
v 0.085968 0.050622 0.511655
v -0.089502 0.049591 0.513838
v -0.140396 0.031631 0.527478
v -0.140396 0.031631 0.527478
v -0.150649 -0.067340 0.572067
v -0.110958 -0.119252 0.501832
v -0.129450 -0.141522 0.324603
v -0.176137 -0.141522 0.000000
v -0.176137 -0.141522 -0.324603
v -0.176137 -0.141522 -0.649206
v -0.258833 -0.067340 -0.649206
v -0.285145 0.031631 -0.649206
v -0.204329 0.164432 -0.649206
v -0.204329 0.164432 -0.324603
v -0.204329 0.164432 0.000000
v -0.150169 0.141163 0.324603
v -0.150169 0.141163 0.324603
v -0.095733 0.135191 0.355290
v -0.091167 0.134691 0.357864
v -0.091167 0.116932 0.461752
v -0.085234 0.051098 0.512694
v 0.612165 0.007228 -0.819984
v 0.612165 0.007228 -0.608104
v 0.870381 0.044673 -0.819984
v 0.870381 0.044673 -0.608104
v 0.612165 0.007228 -0.396224
v 0.870381 0.044673 -0.396224
v 0.551324 0.091514 -0.774859
v 0.551324 0.091514 -0.562979
v 0.551324 0.091514 -0.351099
v -0.612165 0.007228 -0.819984
v -0.612165 0.007228 -0.608104
v -0.870381 0.044673 -0.608104
v -0.870381 0.044673 -0.819984
v -0.612165 0.007228 -0.396224
v -0.870381 0.044673 -0.396224
v -0.551324 0.091514 -0.562979
v -0.551324 0.091514 -0.774859
v -0.551324 0.091514 -0.351099
v -0.482584 0.032691 -0.133137
v -0.436776 -0.040965 -0.133137
v -0.436776 -0.040965 -0.414996
v -0.436776 -0.040965 -0.696854
v -0.482584 0.032691 -0.696854
v -0.341888 0.134693 -0.696854
v -0.341888 0.134693 -0.414996
v -0.341888 0.134693 -0.133137
v 0.495807 0.033003 -0.142887
v 0.351256 0.132762 -0.142887
v 0.351256 0.132762 -0.421615
v 0.351256 0.132762 -0.700343
v 0.495807 0.033003 -0.700343
v 0.448744 -0.039034 -0.700343
v 0.448744 -0.039034 -0.421615
v 0.448744 -0.039034 -0.142887
v 0.249043 0.055077 -0.027107
v 0.176781 0.134426 -0.027107
v 0.408095 0.057810 -0.115780
v 0.289462 0.117491 -0.115780
v -0.246672 0.055077 -0.027107
v -0.174410 0.134426 -0.027107
v -0.279402 0.118647 -0.109730
v -0.394871 0.057623 -0.109730
v 0.415591 0.055690 -0.118097
v 0.253569 0.052800 -0.024790
v 0.179958 0.136703 -0.024790
v 0.294743 0.118796 -0.118097
v 0.489142 0.034887 -0.140827
v 0.297983 0.030459 -0.002060
v 0.211133 0.159044 -0.002060
v 0.346561 0.131601 -0.140827
v -0.399683 0.056255 -0.111014
v -0.282830 0.119527 -0.111014
v -0.176579 0.135887 -0.025620
v -0.249707 0.053615 -0.025620
v -0.475587 0.034680 -0.131270
v -0.336904 0.133413 -0.131270
v -0.210803 0.158943 -0.002162
v -0.297593 0.030560 -0.002162
v 0.408196 0.055558 -0.113839
v 0.480418 0.034685 -0.134494
v 0.486962 0.032794 -0.136366
v 0.440739 -0.040326 -0.136366
v 0.440739 -0.040326 -0.417188
v 0.440739 -0.040326 -0.698009
v 0.486962 0.032794 -0.698009
v 0.344990 0.134053 -0.698009
v 0.344990 0.134053 -0.417188
v 0.344990 0.134053 -0.136366
v 0.340380 0.132854 -0.134494
v 0.289504 0.119614 -0.113839
v 0.284319 0.118264 -0.111733
v 0.400836 0.057685 -0.111733
v 0.252536 0.055137 -0.029054
v 0.179255 0.134054 -0.029054
v 0.182479 0.136309 -0.026839
v 0.214107 0.158441 -0.005107
v 0.216973 0.160446 -0.003138
v 0.216973 0.160446 -0.326733
v 0.216973 0.160446 -0.650329
v 0.306263 0.028535 -0.650329
v 0.277192 -0.066719 -0.650329
v 0.277192 -0.066719 -0.326733
v 0.277192 -0.066719 -0.003138
v 0.306263 0.028535 -0.003138
v 0.302181 0.030556 -0.005107
v 0.257127 0.052863 -0.026839
v 0.294780 0.114816 -0.115780
v 0.289542 0.115549 -0.111733
v 0.182540 0.130516 -0.029054
v 0.180020 0.130869 -0.027107
v 0.183258 0.132942 -0.024790
v 0.215026 0.153279 -0.002060
v 0.217905 0.155122 0.000000
v 0.160147 0.132896 0.324603
v 0.156769 0.110671 0.463407
v 0.156769 0.110671 0.463407
v 0.099940 0.111361 0.463767
v 0.095174 0.111419 0.463797
v 0.091735 0.113482 0.463989
v 0.043164 0.142604 0.466705
v 0.000000 0.157531 0.466705
v -0.043164 0.142604 0.466705
v -0.090901 0.113981 0.464036
v -0.095174 0.111419 0.463797
v -0.099940 0.111361 0.463767
v -0.156769 0.110671 0.463407
v -0.156769 0.110671 0.463407
v -0.160147 0.132896 0.324603
v -0.217905 0.155122 0.000000
v -0.214694 0.153188 -0.002162
v -0.179857 0.132199 -0.025620
v -0.177649 0.130869 -0.027107
v -0.284578 0.115911 -0.109730
v -0.288068 0.116691 -0.111014
v -0.343121 0.128987 -0.131270
v -0.348195 0.130120 -0.133137
v -0.561494 0.089190 -0.351099
v -0.561494 0.089190 -0.562979
v -0.561494 0.089190 -0.774859
v -0.348195 0.130120 -0.696854
v -0.217905 0.155122 -0.649206
v -0.207951 0.158479 -0.649206
v -0.096741 0.195984 -0.649206
v 0.000000 0.215542 -0.649206
v 0.096741 0.195984 -0.649206
v 0.209892 0.157824 -0.649206
v 0.217905 0.155122 -0.649206
v 0.220976 0.154533 -0.650329
v 0.351354 0.129514 -0.698009
v 0.357736 0.128290 -0.700343
v 0.561494 0.089190 -0.774859
v 0.561494 0.089190 -0.562979
v 0.561494 0.089190 -0.351099
v 0.357736 0.128290 -0.142887
v 0.352952 0.127266 -0.140827
v 0.300160 0.115967 -0.118097
v 0.403957 0.059891 -0.115780
v 0.396772 0.059798 -0.111733
v 0.249980 0.057889 -0.029054
v 0.246523 0.057844 -0.027107
v 0.251002 0.055726 -0.024790
v 0.294954 0.034944 -0.002060
v 0.298936 0.033061 0.000000
v 0.219700 0.032249 0.324603
v 0.146970 0.031437 0.518411
v 0.146970 0.031437 0.518411
v 0.093693 0.049440 0.506752
v 0.089225 0.050950 0.505774
v 0.086179 0.052917 0.509915
v 0.043164 0.080696 0.568385
v 0.000000 0.081241 0.568385
v -0.043164 0.080696 0.568385
v -0.085441 0.053394 0.510918
v -0.089225 0.050950 0.505774
v -0.093693 0.049440 0.506752
v -0.146970 0.031437 0.518411
v -0.146970 0.031437 0.518411
v -0.219700 0.032249 0.324603
v -0.298936 0.033061 0.000000
v -0.294566 0.035037 -0.002162
v -0.247157 0.056485 -0.025620
v -0.244152 0.057844 -0.027107
v -0.390844 0.059751 -0.109730
v -0.395607 0.058462 -0.111014
v -0.470751 0.038123 -0.131270
v -0.477677 0.036248 -0.133137
v -0.842721 0.046482 -0.396224
v -0.842721 0.046482 -0.608104
v -0.842721 0.046482 -0.819984
v -0.477677 0.036248 -0.696854
v -0.298936 0.033061 -0.649206
v -0.282326 0.036262 -0.649206
v -0.096741 0.072037 -0.649206
v 0.000000 0.072752 -0.649206
v 0.096741 0.072037 -0.649206
v 0.285565 0.035638 -0.649206
v 0.298936 0.033061 -0.649206
v 0.303149 0.033136 -0.650329
v 0.482011 0.036326 -0.698009
v 0.490766 0.036482 -0.700343
v 0.842721 0.046482 -0.819984
v 0.842721 0.046482 -0.608104
v 0.842721 0.046482 -0.396224
v 0.490766 0.036482 -0.142887
v 0.484170 0.038260 -0.140827
v 0.411376 0.057890 -0.118097
v -0.386340 0.059693 -0.107193
v -0.390321 0.057545 -0.107193
v -0.395077 0.056174 -0.108392
v -0.470122 0.034553 -0.127306
v -0.477039 0.032560 -0.129049
v -0.431757 -0.041775 -0.129049
v -0.431757 -0.041775 -0.412220
v -0.431757 -0.041775 -0.695391
v -0.477039 0.032560 -0.695391
v -0.472188 0.036150 -0.695391
v -0.344194 0.130888 -0.695391
v -0.337959 0.135503 -0.695391
v -0.337959 0.135503 -0.412220
v -0.337959 0.135503 -0.129049
v -0.333032 0.134197 -0.127306
v -0.279567 0.120029 -0.108392
v -0.276178 0.119131 -0.107193
v -0.281295 0.116371 -0.107193
v -0.249022 0.057907 -0.029850
v -0.251592 0.055161 -0.029850
v -0.254686 0.053703 -0.028455
v -0.303503 0.030697 -0.006448
v -0.308002 0.028576 -0.004420
v -0.278766 -0.066465 -0.004420
v -0.278766 -0.066465 -0.327604
v -0.278766 -0.066465 -0.650788
v -0.308002 0.028576 -0.650788
v -0.304870 0.033166 -0.650788
v -0.222230 0.154292 -0.650788
v -0.218205 0.160192 -0.650788
v -0.218205 0.160192 -0.327604
v -0.218205 0.160192 -0.004420
v -0.214990 0.158095 -0.006448
v -0.180107 0.135344 -0.028455
v -0.177896 0.133902 -0.029850
v -0.181199 0.130372 -0.029850
v -0.096741 0.202021 -0.324603
v 0.000000 0.222498 -0.324603
v 0.000000 0.222498 -0.649206
v -0.096741 0.202021 -0.649206
v 0.096741 0.202021 -0.324603
v 0.096741 0.202021 -0.649206
v -0.038006 0.378338 -0.711285
v 0.000000 0.396497 -0.711285
v 0.000000 0.396497 -0.819249
v -0.038006 0.378338 -0.819249
v 0.038006 0.378338 -0.711285
v 0.038006 0.378338 -0.819249
v 0.355567 0.094314 -0.399034
v 0.325834 0.094314 -0.399034
v 0.310967 0.068565 -0.399034
v 0.325834 0.042815 -0.399034
v 0.355567 0.042815 -0.399034
v 0.370434 0.068565 -0.399034
v 0.347611 0.080534 0.177328
v 0.333790 0.080534 0.177328
v 0.326880 0.068565 0.177328
v 0.333790 0.056595 0.177328
v 0.347611 0.056595 0.177328
v 0.354521 0.068565 0.177328
v 0.340700 0.068565 -0.399034
v 0.340700 0.068565 0.177328
v 0.347611 0.080534 0.162519
v 0.354521 0.068565 0.162519
v 0.347611 0.056595 0.162519
v 0.333790 0.056595 0.162519
v 0.326880 0.068565 0.162519
v 0.333790 0.080534 0.162519
v 0.351505 0.087279 0.074340
v 0.362310 0.068565 0.074340
v 0.351505 0.049850 0.074340
v 0.329895 0.049850 0.074340
v 0.319090 0.068565 0.074340
v 0.329895 0.087279 0.074340
v 0.355567 0.094314 -0.013272
v 0.370434 0.068565 -0.013272
v 0.355567 0.042815 -0.013272
v 0.325834 0.042815 -0.013272
v 0.310967 0.068565 -0.013272
v 0.325834 0.094314 -0.013272
v 0.356455 0.095852 0.036771
v 0.372210 0.068565 0.036771
v 0.356455 0.095852 0.074998
v 0.372210 0.068565 0.074998
v 0.356455 0.041277 0.036771
v 0.356455 0.041277 0.074998
v 0.324946 0.041277 0.036771
v 0.324946 0.041277 0.074998
v 0.309191 0.068565 0.036771
v 0.309191 0.068565 0.074998
v 0.324946 0.095852 0.036771
v 0.324946 0.095852 0.074998
v -0.327850 0.094314 -0.399034
v -0.357584 0.094314 -0.399034
v -0.372450 0.068565 -0.399034
v -0.357584 0.042815 -0.399034
v -0.327850 0.042815 -0.399034
v -0.312984 0.068565 -0.399034
v -0.335807 0.080534 0.177328
v -0.349627 0.080534 0.177328
v -0.356538 0.068565 0.177328
v -0.349627 0.056595 0.177328
v -0.335807 0.056595 0.177328
v -0.328896 0.068565 0.177328
v -0.342717 0.068565 -0.399034
v -0.342717 0.068565 0.177328
v -0.335807 0.080534 0.162519
v -0.328896 0.068565 0.162519
v -0.335807 0.056595 0.162519
v -0.349627 0.056595 0.162519
v -0.356538 0.068565 0.162519
v -0.349627 0.080534 0.162519
v -0.331912 0.087279 0.074340
v -0.321107 0.068565 0.074340
v -0.331912 0.049850 0.074340
v -0.353522 0.049850 0.074340
v -0.364327 0.068565 0.074340
v -0.353522 0.087279 0.074340
v -0.327850 0.094314 -0.013272
v -0.312984 0.068565 -0.013272
v -0.327850 0.042815 -0.013272
v -0.357584 0.042815 -0.013272
v -0.372450 0.068565 -0.013272
v -0.357584 0.094314 -0.013272
v -0.326962 0.095852 0.036771
v -0.311208 0.068565 0.036771
v -0.326962 0.095852 0.074998
v -0.311208 0.068565 0.074998
v -0.326962 0.041277 0.036771
v -0.326962 0.041277 0.074998
v -0.358472 0.041277 0.036771
v -0.358472 0.041277 0.074998
v -0.374226 0.068565 0.036771
v -0.374226 0.068565 0.074998
v -0.358472 0.095852 0.036771
v -0.358472 0.095852 0.074998
vt 0.403178 0.299519
vt 0.403178 0.284339
vt 0.489468 0.287421
vt 0.424495 0.311566
vt 0.349387 0.305132
vt 0.349387 0.287421
vt 0.403178 0.265842
vt 0.506333 0.265842
vt 0.403178 0.300878
vt 0.422400 0.313727
vt 0.250867 0.319302
vt 0.250867 0.295204
vt 0.349387 0.265842
vt 0.349387 0.306717
vt 0.403178 0.247345
vt 0.489468 0.244263
vt 0.152346 0.319302
vt 0.152346 0.295204
vt 0.250867 0.321458
vt 0.349387 0.244263
vt 0.403178 0.231900
vt 0.424087 0.219697
vt 0.053825 0.319302
vt 0.053825 0.295204
vt 0.152346 0.265842
vt 0.250867 0.265842
vt 0.152346 0.321458
vt 0.349387 0.326814
vt 0.250867 0.348804
vt 0.250867 0.236480
vt 0.349387 0.226243
vt 0.403178 0.230806
vt 0.422400 0.217957
vt 0.053825 0.265842
vt 0.053825 0.321458
vt 0.152346 0.236480
vt 0.152346 0.348804
vt 0.250867 0.211962
vt 0.349387 0.224967
vt 0.053825 0.236480
vt 0.053825 0.348804
vt 0.152346 0.211962
vt 0.249525 0.350451
vt 0.151435 0.350451
vt 0.250867 0.210226
vt 0.053825 0.211962
vt 0.053345 0.350451
vt 0.152346 0.210226
vt 0.211699 0.396885
vt 0.125753 0.396885
vt 0.250867 0.182880
vt 0.349387 0.204870
vt 0.053825 0.210226
vt 0.039808 0.396885
vt 0.152346 0.182880
vt 0.210458 0.398408
vt 0.124911 0.398408
vt 0.053825 0.182880
vt 0.039363 0.398408
vt 0.151699 0.181711
vt 0.249914 0.181711
vt 0.130608 0.451641
vt 0.066300 0.451641
vt 0.053484 0.181711
vt 0.001992 0.451641
vt 0.124245 0.132073
vt 0.209478 0.132073
vt 0.210458 0.412312
vt 0.130608 0.530012
vt 0.066300 0.530012
vt 0.039013 0.132073
vt 0.001992 0.530012
vt 0.122902 0.129643
vt 0.207499 0.129643
vt 0.038304 0.129643
vt 0.066300 0.080043
vt 0.130608 0.080043
vt 0.001992 0.080043
vt 0.066300 0.001671
vt 0.130608 0.001671
vt 0.207499 0.115359
vt 0.001992 0.001671
vt 0.928684 0.582186
vt 0.928684 0.517214
vt 0.969561 0.572039
vt 0.958722 0.595719
vt 0.928684 0.584282
vt 0.957752 0.597839
vt 0.928684 0.657294
vt 0.957752 0.657294
vt 0.906169 0.657294
vt 0.912928 0.603503
vt 0.958664 0.598471
vt 0.958910 0.657294
vt 0.928684 0.755815
vt 0.957752 0.755815
vt 0.982712 0.615166
vt 0.989458 0.657294
vt 0.959156 0.755815
vt 0.983883 0.615979
vt 0.990946 0.657294
vt 0.996203 0.755815
vt 0.998008 0.755815
vt 0.001992 0.626591
vt 0.023571 0.609726
vt 0.023571 0.681416
vt 0.001992 0.681416
vt 0.045150 0.626591
vt 0.045150 0.681416
vt 0.830709 0.707224
vt 0.830709 0.705537
vt 0.859778 0.691980
vt 0.860559 0.693686
vt 0.830709 0.632525
vt 0.859778 0.632525
vt 0.830709 0.772605
vt 0.871586 0.717780
vt 0.814953 0.686316
vt 0.808194 0.632525
vt 0.830709 0.534004
vt 0.859778 0.534004
vt 0.860935 0.632525
vt 0.860689 0.691348
vt 0.860559 0.693686
vt 0.871586 0.717780
vt 0.861182 0.534004
vt 0.891483 0.632525
vt 0.884737 0.674653
vt 0.898229 0.534004
vt 0.892971 0.632525
vt 0.885909 0.673840
vt 0.900033 0.534004
vt 0.856568 0.794669
vt 0.864840 0.776597
vt 0.865552 0.777766
vt 0.857265 0.795208
vt 0.884342 0.808627
vt 0.875654 0.809437
vt 0.855828 0.796286
vt 0.856524 0.796769
vt 0.874877 0.809510
vt 0.181496 0.594831
vt 0.181496 0.581730
vt 0.182665 0.581730
vt 0.182665 0.594831
vt 0.180715 0.595487
vt 0.180715 0.581730
vt 0.181496 0.568629
vt 0.182665 0.568629
vt 0.213526 0.581730
vt 0.213526 0.594831
vt 0.171401 0.603309
vt 0.171401 0.581730
vt 0.180715 0.567973
vt 0.199568 0.607599
vt 0.199221 0.608895
vt 0.213526 0.568629
vt 0.215030 0.581730
vt 0.215030 0.594831
vt 0.171401 0.560151
vt 0.195081 0.624342
vt 0.199544 0.554331
vt 0.199883 0.555638
vt 0.200877 0.610095
vt 0.201186 0.608742
vt 0.215030 0.568629
vt 0.246561 0.581730
vt 0.246561 0.594831
vt 0.214337 0.609320
vt 0.215030 0.609400
vt 0.195494 0.538751
vt 0.197200 0.626224
vt 0.200877 0.553365
vt 0.201186 0.554718
vt 0.214351 0.553887
vt 0.215030 0.553805
vt 0.246561 0.568629
vt 0.247342 0.581730
vt 0.247342 0.595487
vt 0.246561 0.609400
vt 0.197200 0.537236
vt 0.246561 0.553805
vt 0.247342 0.567973
vt 0.256656 0.581730
vt 0.256656 0.603309
vt 0.215030 0.610704
vt 0.246561 0.610704
vt 0.215030 0.552756
vt 0.246561 0.552756
vt 0.256656 0.560151
vt 0.247342 0.612155
vt 0.215054 0.612155
vt 0.215054 0.551305
vt 0.247342 0.551305
vt 0.256656 0.629456
vt 0.215340 0.629456
vt 0.215340 0.534004
vt 0.256656 0.534004
vt 0.891505 0.791122
vt 0.890909 0.789820
vt 0.891605 0.789337
vt 0.892202 0.790594
vt 0.909958 0.776597
vt 0.910584 0.776655
vt 0.899921 0.809510
vt 0.900633 0.808340
vt 0.919423 0.777479
vt 0.512812 0.311420
vt 0.512812 0.287421
vt 0.611333 0.295204
vt 0.611333 0.327858
vt 0.512812 0.265842
vt 0.611333 0.265842
vt 0.709854 0.295204
vt 0.709854 0.327858
vt 0.512812 0.313568
vt 0.611333 0.330781
vt 0.512812 0.244263
vt 0.611333 0.236480
vt 0.709854 0.265842
vt 0.808374 0.295204
vt 0.808374 0.327858
vt 0.709854 0.330781
vt 0.512812 0.219845
vt 0.611333 0.203256
vt 0.709854 0.236480
vt 0.808374 0.330781
vt 0.710765 0.332070
vt 0.612675 0.332070
vt 0.512812 0.218116
vt 0.611333 0.200903
vt 0.709854 0.203256
vt 0.808855 0.332070
vt 0.736447 0.368416
vt 0.650501 0.368416
vt 0.709854 0.200903
vt 0.808374 0.203256
vt 0.808374 0.236480
vt 0.822392 0.368416
vt 0.737289 0.369609
vt 0.651742 0.369609
vt 0.612286 0.199988
vt 0.710500 0.199988
vt 0.808374 0.200903
vt 0.822836 0.369609
vt 0.782204 0.433175
vt 0.717896 0.433175
vt 0.652722 0.161134
vt 0.737954 0.161134
vt 0.808715 0.199988
vt 0.846512 0.433175
vt 0.782204 0.436262
vt 0.717896 0.436262
vt 0.651742 0.371523
vt 0.654701 0.159232
vt 0.739298 0.159232
vt 0.823187 0.161134
vt 0.846512 0.436262
vt 0.795900 0.521617
vt 0.731592 0.521617
vt 0.651742 0.410822
vt 0.717896 0.098509
vt 0.782204 0.098509
vt 0.823895 0.159232
vt 0.860208 0.521617
vt 0.795900 0.530012
vt 0.731592 0.530012
vt 0.651742 0.412312
vt 0.654701 0.157265
vt 0.717896 0.095422
vt 0.782204 0.095422
vt 0.846512 0.098509
vt 0.860208 0.530012
vt 0.654701 0.116889
vt 0.731592 0.010067
vt 0.795900 0.010067
vt 0.846512 0.095422
vt 0.654701 0.115359
vt 0.731592 0.001672
vt 0.795900 0.001672
vt 0.860208 0.010067
vt 0.860208 0.001672
vt 0.761161 0.651366
vt 0.772697 0.651366
vt 0.772697 0.684135
vt 0.761161 0.684135
vt 0.743335 0.534004
vt 0.772697 0.534004
vt 0.784232 0.651366
vt 0.784232 0.684135
vt 0.802059 0.534004
vt 0.924046 0.343136
vt 0.913188 0.286809
vt 0.914614 0.286809
vt 0.925452 0.343992
vt 0.886952 0.320563
vt 0.875569 0.286809
vt 0.912971 0.257447
vt 0.914614 0.257447
vt 0.955491 0.286809
vt 0.955491 0.336006
vt 0.925018 0.348177
vt 0.926422 0.349110
vt 0.885145 0.319463
vt 0.873737 0.286809
vt 0.869633 0.257447
vt 0.887971 0.323584
vt 0.913188 0.228085
vt 0.914614 0.228085
vt 0.955491 0.257447
vt 0.978006 0.286809
vt 0.978006 0.310907
vt 0.955491 0.340409
vt 0.926379 0.350929
vt 0.924986 0.349979
vt 0.867522 0.257447
vt 0.886167 0.322386
vt 0.875569 0.228085
vt 0.888223 0.324896
vt 0.924236 0.170775
vt 0.925641 0.169904
vt 0.955491 0.228085
vt 0.978006 0.257447
vt 0.978006 0.313063
vt 0.955225 0.342056
vt 0.925170 0.402234
vt 0.924080 0.400761
vt 0.873737 0.228085
vt 0.886432 0.323675
vt 0.887151 0.193742
vt 0.895326 0.361914
vt 0.925018 0.166716
vt 0.926422 0.165784
vt 0.955491 0.178030
vt 0.978006 0.228085
vt 0.947732 0.388490
vt 0.925130 0.403917
vt 0.924051 0.402427
vt 0.885344 0.194861
vt 0.893926 0.360021
vt 0.887971 0.191310
vt 0.895559 0.363128
vt 0.924995 0.165438
vt 0.926392 0.164493
vt 0.955491 0.174485
vt 0.978006 0.203567
vt 0.947486 0.390013
vt 0.886167 0.192508
vt 0.894172 0.361214
vt 0.888150 0.190378
vt 0.920945 0.513222
vt 0.907982 0.427867
vt 0.924027 0.111151
vt 0.925099 0.109648
vt 0.955302 0.173316
vt 0.978006 0.201831
vt 0.886355 0.191593
vt 0.895743 0.150807
vt 0.923980 0.108494
vt 0.925036 0.106964
vt 0.947292 0.123678
vt 0.894366 0.152739
vt 0.896115 0.148870
vt 0.946900 0.121248
vt 0.894758 0.150837
vt 0.920945 0.001672
vt 0.907982 0.087027
vt 0.268927 0.534004
vt 0.298288 0.534004
vt 0.298288 0.632525
vt 0.276709 0.632525
vt 0.581996 0.724282
vt 0.592834 0.703249
vt 0.592834 0.703249
vt 0.581996 0.724282
vt 0.592834 0.681670
vt 0.592834 0.681670
vt 0.581026 0.726164
vt 0.581026 0.726164
vt 0.543217 0.682581
vt 0.543330 0.681670
vt 0.543330 0.681670
vt 0.543217 0.682581
vt 0.540243 0.706629
vt 0.540243 0.706629
vt 0.540098 0.707801
vt 0.540098 0.707801
vt 0.557491 0.706839
vt 0.557398 0.707755
vt 0.540098 0.714863
vt 0.540098 0.714863
vt 0.558937 0.706857
vt 0.558850 0.707751
vt 0.542246 0.715884
vt 0.542246 0.715884
vt 0.559387 0.688045
vt 0.560743 0.688504
vt 0.560234 0.707634
vt 0.560153 0.708530
vt 0.566245 0.727293
vt 0.566245 0.727293
vt 0.558768 0.714072
vt 0.557398 0.713274
vt 0.559459 0.687333
vt 0.560811 0.687808
vt 0.574067 0.722988
vt 0.560153 0.713920
vt 0.558850 0.713140
vt 0.574723 0.722627
vt 0.972657 0.812085
vt 0.972657 0.790506
vt 0.972657 0.790506
vt 0.972657 0.812085
vt 0.750158 0.734778
vt 0.749377 0.736484
vt 0.749377 0.736484
vt 0.750158 0.734778
vt 0.750288 0.737117
vt 0.750288 0.737117
vt 0.103786 0.660617
vt 0.097571 0.682196
vt 0.097571 0.682196
vt 0.103786 0.660617
vt 0.097571 0.639038
vt 0.097571 0.639038
vt 0.085964 0.614620
vt 0.085964 0.614620
vt 0.085142 0.612891
vt 0.085142 0.612891
vt 0.084195 0.631294
vt 0.093266 0.646860
vt 0.083552 0.630192
vt 0.078079 0.612891
vt 0.078079 0.612891
vt 0.084046 0.632693
vt 0.092905 0.647516
vt 0.083419 0.631643
vt 0.076908 0.613036
vt 0.076908 0.613036
vt 0.052860 0.616010
vt 0.052860 0.616010
vt 0.925990 0.789168
vt 0.925990 0.759807
vt 0.925990 0.759807
vt 0.925990 0.789168
vt 0.925990 0.781386
vt 0.925990 0.781386
vt 0.262791 0.632525
vt 0.262791 0.534004
vt 0.262791 0.534004
vt 0.262791 0.632525
vt 0.966522 0.790506
vt 0.966522 0.812085
vt 0.966522 0.812085
vt 0.966522 0.790506
vt 0.981766 0.791417
vt 0.981879 0.790506
vt 0.998008 0.796169
vt 0.997936 0.796881
vt 0.978792 0.815466
vt 0.996040 0.815675
vt 0.978553 0.759806
vt 0.978666 0.760718
vt 0.962496 0.766182
vt 0.962424 0.765470
vt 0.981640 0.784766
vt 0.964392 0.784976
vt 0.961140 0.766640
vt 0.961071 0.765945
vt 0.981785 0.785937
vt 0.964484 0.785891
vt 0.962946 0.784993
vt 0.963033 0.785887
vt 0.961902 0.785619
vt 0.961984 0.786515
vt 0.172903 0.636132
vt 0.150711 0.650161
vt 0.151103 0.647732
vt 0.172967 0.633447
vt 0.171611 0.690976
vt 0.142700 0.699800
vt 0.171580 0.692268
vt 0.142511 0.700969
vt 0.067287 0.539716
vt 0.067287 0.538482
vt 0.068515 0.536279
vt 0.068515 0.537535
vt 0.069218 0.534004
vt 0.069218 0.535283
vt 0.067287 0.572261
vt 0.068515 0.570671
vt 0.067287 0.573846
vt 0.068515 0.572286
vt 0.042193 0.605734
vt 0.042193 0.604737
vt 0.308172 0.653213
vt 0.337241 0.661914
vt 0.337284 0.663733
vt 0.308438 0.654860
vt 0.338493 0.715038
vt 0.315932 0.701294
vt 0.338533 0.716721
vt 0.316178 0.702818
vt 0.210725 0.655380
vt 0.211565 0.654615
vt 0.211584 0.656093
vt 0.210751 0.656873
vt 0.233578 0.635508
vt 0.233729 0.634431
vt 0.212126 0.697771
vt 0.211474 0.698979
vt 0.229328 0.665888
vt 0.234808 0.633447
vt 0.234649 0.634505
vt 0.432826 0.547907
vt 0.432826 0.534004
vt 0.470197 0.587237
vt 0.470197 0.665608
vt 0.384243 0.534004
vt 0.384243 0.535493
vt 0.346871 0.653194
vt 0.346871 0.644799
vt 0.340736 0.647691
vt 0.340736 0.649222
vt 0.304424 0.542399
vt 0.304424 0.534004
vt 0.390378 0.661976
vt 0.390378 0.647691
vt 0.426691 0.534004
vt 0.426691 0.612375
vt 0.801303 0.726978
vt 0.802235 0.728382
vt 0.801013 0.727767
vt 0.800094 0.726406
vt 0.787534 0.720986
vt 0.786754 0.720098
vt 0.776709 0.689931
vt 0.775835 0.690490
vt 0.786160 0.720295
vt 0.785395 0.719455
vt 0.766193 0.696663
vt 0.775511 0.688126
vt 0.774654 0.688740
vt 0.765211 0.697292
vt 0.765192 0.695521
vt 0.764227 0.696212
vt 0.116742 0.536688
vt 0.118722 0.534004
vt 0.118096 0.536027
vt 0.116174 0.538675
vt 0.111197 0.558351
vt 0.109905 0.560595
vt 0.076904 0.592772
vt 0.076306 0.591533
vt 0.083500 0.606446
vt 0.075354 0.592824
vt 0.075979 0.594046
vt 0.082878 0.607526
vt 0.084172 0.607840
vt 0.109266 0.562829
vt 0.083581 0.608900
vt 0.241908 0.636516
vt 0.242964 0.638046
vt 0.243504 0.640048
vt 0.242480 0.638539
vt 0.270829 0.678422
vt 0.270518 0.679874
vt 0.249462 0.662142
vt 0.248794 0.660863
vt 0.272186 0.680389
vt 0.271834 0.681814
vt 0.267089 0.695897
vt 0.267947 0.697541
vt 0.250069 0.664393
vt 0.266739 0.697530
vt 0.267551 0.699144
vt 0.268195 0.699131
vt 0.267786 0.700705
vt 0.442650 0.681670
vt 0.444629 0.683572
vt 0.445197 0.684971
vt 0.443275 0.683095
vt 0.485066 0.722426
vt 0.484468 0.723296
vt 0.451467 0.700412
vt 0.450174 0.698822
vt 0.486018 0.723341
vt 0.485393 0.724199
vt 0.477872 0.732896
vt 0.478494 0.733661
vt 0.452106 0.701986
vt 0.477200 0.733874
vt 0.477791 0.734625
vt 0.809053 0.816852
vt 0.809985 0.815448
vt 0.811312 0.814848
vt 0.810393 0.816207
vt 0.834579 0.778401
vt 0.835554 0.778988
vt 0.825701 0.808339
vt 0.824927 0.809210
vt 0.835777 0.776597
vt 0.836735 0.777241
vt 0.846127 0.785358
vt 0.826613 0.807926
vt 0.825848 0.808766
vt 0.847122 0.784239
vt 0.846797 0.785762
vt 0.847780 0.784683
vt 0.533732 0.693673
vt 0.532390 0.694962
vt 0.531775 0.693986
vt 0.533076 0.692716
vt 0.494564 0.731309
vt 0.495093 0.729813
vt 0.525095 0.683399
vt 0.525956 0.682328
vt 0.493323 0.732501
vt 0.493890 0.730989
vt 0.500834 0.713586
vt 0.524672 0.682728
vt 0.525505 0.681670
vt 0.500038 0.714577
vt 0.501197 0.712558
vt 0.500427 0.713536
vt 0.346282 0.717364
vt 0.345203 0.718853
vt 0.345806 0.716730
vt 0.346851 0.715262
vt 0.352355 0.693692
vt 0.353024 0.692455
vt 0.374774 0.678065
vt 0.374430 0.676525
vt 0.370697 0.659816
vt 0.376161 0.676151
vt 0.375773 0.674638
vt 0.353416 0.691009
vt 0.370461 0.658757
vt 0.371558 0.658226
vt 0.371291 0.657185
vt 0.126198 0.573493
vt 0.124857 0.571673
vt 0.125513 0.570334
vt 0.126814 0.572127
vt 0.132633 0.555800
vt 0.133493 0.557311
vt 0.164025 0.624797
vt 0.163496 0.622698
vt 0.133084 0.554878
vt 0.133917 0.556372
vt 0.157755 0.599921
vt 0.165266 0.626480
vt 0.164699 0.624357
vt 0.157391 0.598477
vt 0.158551 0.601319
vt 0.158161 0.599859
vt 0.157391 0.597269
vt 0.158161 0.598636
vt 0.158551 0.600082
vt 0.157391 0.565387
vt 0.158161 0.566383
vt 0.157391 0.563834
vt 0.158161 0.564812
vt 0.133917 0.535007
vt 0.133917 0.534004
vt 0.757069 0.739256
vt 0.756424 0.737022
vt 0.756464 0.734778
vt 0.757107 0.737053
vt 0.112168 0.677307
vt 0.111328 0.676543
vt 0.111346 0.675483
vt 0.112182 0.676258
vt 0.112120 0.630472
vt 0.112761 0.631705
vt 0.134332 0.697492
vt 0.134225 0.696727
vt 0.129682 0.664251
vt 0.135412 0.698475
vt 0.135299 0.697724
vt 0.203217 0.633447
vt 0.203217 0.635362
vt 0.179542 0.700101
vt 0.179542 0.697014
vt 0.278938 0.653213
vt 0.301555 0.715056
vt 0.301555 0.717023
vt 0.278938 0.656300
vt 0.933786 0.789168
vt 0.940001 0.759806
vt 0.940001 0.759806
vt 0.933786 0.789168
vt 0.933786 0.789168
vt 0.933786 0.789168
vt 0.940001 0.759806
vt 0.940001 0.759806
vt 0.953644 0.789168
vt 0.947429 0.759806
vt 0.947429 0.759806
vt 0.953644 0.789168
vt 0.947429 0.759806
vt 0.947429 0.759806
vt 0.953644 0.789168
vt 0.953644 0.789168
vt 0.435792 0.698961
vt 0.435792 0.728323
vt 0.384182 0.710497
vt 0.384182 0.698961
vt 0.435792 0.669599
vt 0.384182 0.687426
vt 0.624036 0.632525
vt 0.624036 0.534004
vt 0.677550 0.651366
vt 0.677550 0.684135
vt 0.683685 0.684135
vt 0.683685 0.585614
vt 0.737199 0.534004
vt 0.737199 0.566772
vt 0.617901 0.677678
vt 0.608876 0.677678
vt 0.608876 0.560595
vt 0.617901 0.560595
vt 0.610109 0.534004
vt 0.616668 0.534004
vt 0.544049 0.677678
vt 0.536234 0.677678
vt 0.536234 0.560595
vt 0.544049 0.560595
vt 0.528418 0.677678
vt 0.528418 0.560595
vt 0.536234 0.534004
vt 0.541914 0.534004
vt 0.530553 0.534004
vt 0.513258 0.534004
vt 0.522283 0.534004
vt 0.522283 0.651087
vt 0.513258 0.651087
vt 0.521050 0.677678
vt 0.514491 0.677678
vt 0.587110 0.534004
vt 0.594926 0.534004
vt 0.594926 0.651087
vt 0.587110 0.651087
vt 0.602741 0.534004
vt 0.602741 0.651087
vt 0.594926 0.677678
vt 0.589245 0.677678
vt 0.600606 0.677678
vt 0.944755 0.806696
vt 0.944755 0.797672
vt 0.952571 0.802184
vt 0.952571 0.793160
vt 0.952571 0.811209
vt 0.960386 0.797672
vt 0.960386 0.806696
vt 0.783908 0.734470
vt 0.783908 0.738665
vt 0.780276 0.736568
vt 0.780276 0.740763
vt 0.780276 0.732373
vt 0.776643 0.738665
vt 0.776643 0.734470
vt 0.608797 0.719836
vt 0.612430 0.719836
vt 0.612430 0.724331
vt 0.608797 0.724331
vt 0.608797 0.693272
vt 0.617080 0.693272
vt 0.605165 0.719836
vt 0.605165 0.724331
vt 0.600515 0.693272
vt 0.608797 0.681670
vt 0.617080 0.681670
vt 0.600515 0.681670
vt 0.731831 0.726292
vt 0.736025 0.726292
vt 0.736025 0.730787
vt 0.731831 0.730787
vt 0.729146 0.699728
vt 0.738710 0.699728
vt 0.729146 0.688126
vt 0.738710 0.688126
vt 0.690654 0.692621
vt 0.687021 0.692621
vt 0.687021 0.688126
vt 0.690654 0.688126
vt 0.690654 0.719184
vt 0.682371 0.719184
vt 0.694286 0.692621
vt 0.694286 0.688126
vt 0.698936 0.719184
vt 0.690654 0.730787
vt 0.682371 0.730787
vt 0.698936 0.730787
vt 0.630782 0.692621
vt 0.626587 0.692621
vt 0.626587 0.688126
vt 0.630782 0.688126
vt 0.633466 0.719184
vt 0.623903 0.719184
vt 0.633466 0.730787
vt 0.623903 0.730787
vt 0.916854 0.821783
vt 0.916854 0.827464
vt 0.905452 0.830066
vt 0.905452 0.821783
vt 0.916854 0.816103
vt 0.905452 0.813501
vt 0.838642 0.820844
vt 0.845201 0.820844
vt 0.846703 0.832246
vt 0.837140 0.832246
vt 0.887914 0.821783
vt 0.887914 0.816103
vt 0.899316 0.813501
vt 0.899316 0.821783
vt 0.887914 0.827464
vt 0.899316 0.830066
vt 0.813803 0.832246
vt 0.807245 0.832246
vt 0.805742 0.820844
vt 0.815306 0.820844
vt 0.580975 0.677678
vt 0.571950 0.677678
vt 0.571950 0.560595
vt 0.580975 0.560595
vt 0.573183 0.534004
vt 0.579742 0.534004
vt 0.507123 0.677678
vt 0.499308 0.677678
vt 0.499308 0.560595
vt 0.507123 0.560595
vt 0.491492 0.677678
vt 0.491492 0.560595
vt 0.499308 0.534004
vt 0.504988 0.534004
vt 0.493628 0.534004
vt 0.476333 0.534004
vt 0.485357 0.534004
vt 0.485357 0.651087
vt 0.476333 0.651087
vt 0.484124 0.677678
vt 0.477565 0.677678
vt 0.550184 0.534004
vt 0.558000 0.534004
vt 0.558000 0.651087
vt 0.550184 0.651087
vt 0.565815 0.534004
vt 0.565815 0.651087
vt 0.558000 0.677678
vt 0.552320 0.677678
vt 0.563680 0.677678
vt 0.922989 0.827038
vt 0.922989 0.818013
vt 0.930805 0.822526
vt 0.930805 0.813501
vt 0.930805 0.831550
vt 0.938620 0.818013
vt 0.938620 0.827038
vt 0.770508 0.734470
vt 0.770508 0.738665
vt 0.766875 0.736568
vt 0.766875 0.740763
vt 0.766875 0.732373
vt 0.763242 0.738665
vt 0.763242 0.734470
vt 0.649726 0.726292
vt 0.653358 0.726292
vt 0.653358 0.730787
vt 0.649726 0.730787
vt 0.649726 0.699728
vt 0.658008 0.699728
vt 0.646093 0.726292
vt 0.646093 0.730787
vt 0.641443 0.699728
vt 0.649726 0.688126
vt 0.658008 0.688126
vt 0.641443 0.688126
vt 0.749371 0.726292
vt 0.753566 0.726292
vt 0.753566 0.730787
vt 0.749371 0.730787
vt 0.746687 0.699728
vt 0.756250 0.699728
vt 0.746687 0.688126
vt 0.756250 0.688126
vt 0.714041 0.692621
vt 0.710408 0.692621
vt 0.710408 0.688126
vt 0.714041 0.688126
vt 0.714041 0.719184
vt 0.705759 0.719184
vt 0.717674 0.692621
vt 0.717674 0.688126
vt 0.722323 0.719184
vt 0.714041 0.730787
vt 0.705759 0.730787
vt 0.722323 0.730787
vt 0.671710 0.692621
vt 0.667515 0.692621
vt 0.667515 0.688126
vt 0.671710 0.688126
vt 0.674394 0.719184
vt 0.664831 0.719184
vt 0.674394 0.730787
vt 0.664831 0.730787
vt 0.881779 0.821783
vt 0.881779 0.827464
vt 0.870376 0.830066
vt 0.870376 0.821783
vt 0.881779 0.816103
vt 0.870376 0.813501
vt 0.822943 0.820844
vt 0.829502 0.820844
vt 0.831004 0.832246
vt 0.821441 0.832246
vt 0.852838 0.829126
vt 0.852838 0.823446
vt 0.864241 0.820843
vt 0.864241 0.829126
vt 0.852838 0.834806
vt 0.864241 0.837408
vt 0.798105 0.743775
vt 0.791546 0.743775
vt 0.790044 0.732373
vt 0.799607 0.732373
vn -0.322840 -0.879889 0.348670
vn -0.215115 -0.957628 0.191504
vn -0.711227 -0.325338 0.623146
vn -0.748254 -0.337572 0.571105
vn 0.000000 -0.986627 0.162996
vn 0.000000 -0.228377 0.973573
vn 0.213822 -0.957836 0.191913
vn 0.709849 -0.324599 0.625100
vn 0.322170 -0.879574 0.350081
vn 0.283639 -0.832214 0.476412
vn 0.645795 -0.307921 0.698666
vn 0.747600 -0.336030 0.572868
vn -0.565282 0.662090 0.492029
vn -0.781459 0.380755 0.494316
vn 0.000000 0.839900 0.542741
vn 0.563605 0.663214 0.492440
vn 0.713832 0.356611 0.602721
vn 0.780091 0.383045 0.494707
vn -0.829287 0.353002 0.433214
vn -0.461649 0.708593 0.533645
vn -0.444450 0.714992 0.539676
vn -0.756957 0.420285 0.500377
vn 0.000000 0.827089 0.562070
vn 0.000000 0.827091 0.562067
vn 0.462054 0.707660 0.534531
vn 0.444709 0.714082 0.540667
vn 0.829629 0.350377 0.434685
vn 0.836471 0.267757 0.478145
vn 0.758380 0.334305 0.559554
vn 0.757127 0.417650 0.502322
vn -0.507547 0.849305 0.145178
vn -0.423730 0.892838 0.152619
vn -0.423730 0.892838 0.152619
vn -0.507547 0.849305 0.145178
vn 0.000000 0.985703 0.168493
vn 0.000000 0.985703 0.168493
vn 0.423730 0.892838 0.152619
vn 0.423730 0.892838 0.152619
vn 0.507547 0.849305 0.145178
vn 0.507547 0.849305 0.145178
vn 0.507547 0.849305 0.145178
vn 0.507547 0.849305 0.145178
vn -0.370873 0.920838 0.120463
vn -0.304602 0.947681 0.095492
vn -0.287176 0.956685 0.047794
vn -0.351085 0.934396 0.060357
vn 0.000000 0.996710 0.081054
vn 0.000000 0.999183 0.040422
vn 0.304597 0.947668 0.095633
vn 0.287175 0.956682 0.047865
vn 0.370860 0.920806 0.120743
vn 0.370448 0.919784 0.129483
vn 0.350973 0.934134 0.064896
vn 0.351082 0.934388 0.060497
vn -0.289434 0.957198 0.000000
vn -0.329828 0.944041 0.000000
vn 0.000000 1.000000 0.000000
vn 0.289434 0.957198 0.000000
vn 0.329828 0.944041 0.000000
vn 0.329828 0.944041 0.000000
vn -0.329828 0.944041 0.000000
vn -0.329828 0.944041 0.000000
vn -0.431106 0.902301 0.000000
vn -0.000000 1.000000 0.000000
vn -0.000000 1.000000 0.000000
vn -0.431106 0.902301 0.000000
vn 0.431105 0.902302 0.000000
vn 0.431105 0.902302 0.000000
vn 0.329828 0.944041 0.000000
vn 0.329828 0.944041 0.000000
vn -0.000001 0.000000 -1.000000
vn 0.000000 0.000000 -1.000000
vn 0.000000 0.000000 -1.000000
vn 0.000000 0.000000 -1.000000
vn 0.000000 0.000000 -1.000000
vn 0.000000 0.000000 -1.000000
vn -0.000000 0.000000 -1.000000
vn -0.000000 0.000000 -1.000000
vn -0.000000 0.000000 -1.000000
vn 0.000000 0.000000 -1.000000
vn 0.000003 0.000000 -1.000000
vn 0.000001 0.000000 -1.000000
vn 0.000000 0.000000 -1.000000
vn 0.000001 0.000000 -1.000000
vn 0.000000 0.000000 -1.000000
vn -0.000000 0.000000 -1.000000
vn 0.000003 0.000000 -1.000000
vn 0.000001 0.000000 -1.000000
vn 0.000000 0.000000 -1.000000
vn 0.000000 0.000000 -1.000000
vn 0.000000 0.000000 -1.000000
vn 0.000000 0.000000 -1.000000
vn 0.000000 0.000000 -1.000000
vn 0.000000 0.000000 -1.000000
vn 0.000000 -1.000000 -0.000000
vn 0.000000 -1.000000 -0.000000
vn 0.000000 -1.000000 -0.000000
vn 0.000000 -1.000000 -0.000000
vn 0.000000 -1.000000 -0.000000
vn 0.000000 -1.000000 -0.000000
vn 0.000000 -1.000000 -0.000000
vn 0.000000 -1.000000 -0.000000
vn 0.000000 -1.000000 -0.000000
vn 0.000000 -1.000000 -0.000000
vn 0.000000 -1.000000 -0.000000
vn 0.000000 -1.000000 -0.000000
vn 0.000000 -1.000000 -0.000000
vn 0.000000 -1.000000 -0.000000
vn 0.000000 -1.000000 0.000000
vn 0.000000 -1.000000 0.000000
vn 0.000000 -1.000000 0.000000
vn 0.000000 -1.000000 0.000000
vn 0.000000 -0.996528 0.083263
vn 0.000000 -0.998047 0.062461
vn 0.000000 -1.000000 0.000000
vn 0.000000 -1.000000 0.000000
vn 0.000000 -1.000000 0.000000
vn 0.000000 -1.000000 0.000000
vn 0.000000 -0.998047 0.062461
vn 0.000000 -0.996528 0.083263
vn 0.000000 -0.998047 0.062461
vn 0.000000 -0.998047 0.062461
vn 0.000000 -0.992197 0.124678
vn 0.000000 -0.992197 0.124678
vn 0.000000 -0.992197 0.124678
vn 0.000000 -0.992197 0.124678
vn 0.000000 -0.992197 0.124678
vn 0.000000 -0.992197 0.124678
vn 0.635627 -0.771996 -0.000000
vn 0.635627 -0.771996 -0.000000
vn 0.635627 -0.771996 -0.000000
vn 0.635627 -0.771996 -0.000000
vn 0.660979 -0.747686 0.063814
vn 0.787383 -0.604378 0.121468
vn 0.698315 -0.702905 0.135207
vn 0.877719 -0.435332 0.200239
vn 0.713405 -0.685997 0.143047
vn 0.905411 -0.364003 0.218478
vn 0.143514 -0.989648 0.000000
vn 0.143514 -0.989648 0.000000
vn 0.999225 0.039350 0.000000
vn 0.999226 0.039350 0.000000
vn 0.143514 -0.989648 0.000000
vn 0.999226 0.039350 0.000000
vn 0.961266 0.150580 0.230854
vn 0.948889 0.166345 0.268213
vn 0.935757 0.180833 0.302750
vn 0.107791 0.994174 0.000000
vn 0.107791 0.994174 0.000000
vn 0.107791 0.994174 0.000000
vn 0.828752 0.523147 0.198713
vn 0.868727 0.431824 0.242572
vn 0.898435 0.335226 0.283614
vn -0.635627 -0.771996 -0.000000
vn -0.635627 -0.771996 -0.000000
vn -0.635627 -0.771996 -0.000000
vn -0.635627 -0.771996 -0.000000
vn -0.660979 -0.747686 0.063814
vn -0.787383 -0.604378 0.121468
vn -0.698315 -0.702905 0.135207
vn -0.877719 -0.435332 0.200239
vn -0.713405 -0.685997 0.143047
vn -0.905411 -0.364003 0.218478
vn -0.143514 -0.989648 0.000000
vn -0.143514 -0.989648 0.000000
vn -0.999226 0.039350 0.000000
vn -0.999225 0.039350 0.000000
vn -0.143514 -0.989648 0.000000
vn -0.999226 0.039350 0.000000
vn -0.948890 0.166345 0.268213
vn -0.961266 0.150580 0.230854
vn -0.935757 0.180833 0.302750
vn -0.107791 0.994174 0.000000
vn -0.107791 0.994174 0.000000
vn -0.107791 0.994174 0.000000
vn -0.868727 0.431824 0.242572
vn -0.828752 0.523147 0.198713
vn -0.898435 0.335226 0.283614
vn 0.000000 0.000000 0.000000
vn 0.000000 0.000000 0.000000
vn 0.000000 0.000000 0.000000
vn 0.000000 0.000000 0.000000
vn 0.000000 0.000000 0.000000
vn 0.000000 0.000000 0.000000
vn 0.000000 0.000000 0.000000
vn 0.000000 0.000000 0.000000
vn 0.000000 0.000000 0.000000
vn 0.000000 0.000000 0.000000
vn 0.000000 0.000000 0.000000
vn 0.000000 0.000000 0.000000
vn 0.000000 0.000000 -1.000000
vn 0.000000 0.000000 -1.000000
vn 0.000000 0.000000 -1.000000
vn 0.000000 0.000000 -1.000000
vn -0.000000 0.000000 0.000000
vn -0.000000 0.000000 0.000000
vn -0.000000 0.000000 0.000000
vn -0.000000 0.000000 0.000000
vn -0.000000 0.000000 -0.000000
vn -0.000000 0.000000 -0.000000
vn -0.000000 0.000000 -0.000000
vn -0.000000 0.000000 -0.000000
vn 0.000000 0.000000 0.000000
vn 0.000000 0.000000 0.000000
vn 0.000000 0.000000 0.000000
vn 0.000000 0.000000 0.000000
vn 0.000000 0.000000 0.000000
vn 0.000000 0.000000 0.000000
vn 0.000000 0.000000 0.000000
vn 0.000000 0.000000 0.000000
vn 0.000000 0.000000 1.000000
vn 0.000000 0.000000 1.000000
vn 0.000000 0.000000 1.000000
vn 0.000000 0.000000 1.000000
vn 0.000000 0.000000 0.000000
vn 0.000000 0.000000 0.000000
vn 0.000000 0.000000 0.000000
vn 0.000000 0.000000 0.000000
vn 0.000000 0.000000 0.000000
vn 0.000000 0.000000 0.000000
vn 0.000000 0.000000 0.000000
vn 0.000000 0.000000 0.000000
vn 0.000000 0.000000 0.000000
vn 0.000000 0.000000 0.000000
vn 0.000000 0.000000 0.000000
vn 0.000000 0.000000 0.000000
vn 0.000000 0.000000 0.000000
vn 0.000000 0.000000 0.000000
vn 0.000000 0.000000 0.000000
vn 0.000000 0.000000 0.000000
vn 0.000000 1.000000 0.000000
vn 0.000000 1.000000 0.000000
vn 0.000000 1.000000 0.000000
vn 0.000000 1.000000 0.000000
vn 0.000000 0.000000 -1.000000
vn 0.000000 0.000000 -1.000000
vn 0.000000 0.000000 -1.000000
vn 0.000000 0.000000 -1.000000
vn 0.000000 0.000000 0.000000
vn 0.000000 0.000000 0.000000
vn 0.000000 0.000000 0.000000
vn 0.000000 0.000000 0.000000
vn -0.375181 0.919828 -0.114700
vn -0.392285 0.914573 -0.098333
vn -0.398478 0.910348 -0.111725
vn -0.379561 0.916160 -0.128785
vn -0.012377 0.569266 0.822060
vn -0.012471 0.569257 0.822065
vn -0.012502 0.569313 0.822026
vn -0.012400 0.569322 0.822021
vn 0.000000 0.949339 0.314254
vn 0.000000 0.949339 0.314254
vn 0.000000 0.949341 0.314248
vn 0.000000 0.949341 0.314248
vn 0.000000 0.949339 0.314254
vn 0.000000 0.949339 0.314254
vn 0.000000 0.949341 0.314248
vn 0.000000 0.949341 0.314248
vn 0.374627 0.919988 -0.115225
vn 0.357346 0.924672 -0.131476
vn 0.359827 0.921486 -0.146246
vn 0.378949 0.916336 -0.129332
vn 0.012471 0.569257 0.822065
vn 0.012377 0.569266 0.822060
vn 0.012401 0.569322 0.822021
vn 0.012505 0.569313 0.822026
vn -0.342805 0.662823 0.665695
vn -0.334245 0.646273 0.686012
vn -0.345895 0.626154 0.698776
vn -0.356001 0.644301 0.676860
vn -0.000153 0.985703 0.168493
vn -0.000153 0.985703 0.168493
vn -0.000152 0.985703 0.168493
vn -0.000152 0.985703 0.168493
vn -0.252269 0.805122 0.536786
vn -0.252269 0.805122 0.536786
vn -0.267583 0.798292 0.539564
vn -0.267583 0.798292 0.539564
vn 0.252269 0.805122 0.536786
vn 0.252269 0.805122 0.536786
vn 0.267583 0.798292 0.539563
vn 0.267583 0.798292 0.539563
vn 0.000153 0.985703 0.168493
vn 0.000153 0.985703 0.168493
vn 0.000152 0.985703 0.168493
vn 0.000152 0.985703 0.168493
vn 0.325160 0.628706 0.706399
vn 0.333967 0.645734 0.686654
vn 0.345566 0.625563 0.699468
vn 0.335154 0.606862 0.720687
vn 0.383184 0.912471 -0.143410
vn 0.362224 0.918084 -0.160982
vn 0.000000 0.949343 0.314242
vn 0.000000 0.949343 0.314242
vn 0.000000 0.949343 0.314242
vn 0.000000 0.949343 0.314242
vn -0.383854 0.912279 -0.142841
vn -0.404578 0.905908 -0.125092
vn -0.012533 0.569370 0.821986
vn -0.012422 0.569379 0.821981
vn -0.000151 0.985703 0.168493
vn -0.000151 0.985703 0.168493
vn -0.357303 0.605592 0.711051
vn -0.368967 0.625366 0.687590
vn -0.282820 0.791232 0.542185
vn -0.282820 0.791232 0.542185
vn 0.282820 0.791232 0.542185
vn 0.282820 0.791232 0.542185
vn 0.356924 0.604946 0.711790
vn 0.344887 0.584544 0.734412
vn 0.000151 0.985703 0.168493
vn 0.000151 0.985703 0.168493
vn 0.012424 0.569379 0.821981
vn 0.012538 0.569369 0.821986
vn 0.391689 0.914766 -0.098907
vn 0.397814 0.910563 -0.112330
vn 1.000000 0.000000 0.000000
vn 1.000000 0.000000 0.000000
vn 1.000000 0.000000 0.000000
vn 1.000000 0.000000 0.000000
vn 0.329828 0.944041 0.000000
vn 0.000000 0.000000 0.000000
vn 0.000000 0.000000 0.000000
vn 0.000000 0.000000 0.000000
vn 0.000000 0.000000 0.000000
vn 0.342521 0.662274 0.666388
vn 0.355664 0.643694 0.677614
vn 0.368578 0.624700 0.688404
vn 0.403846 0.906147 -0.125727
vn -0.357856 0.924542 -0.131001
vn -0.360384 0.921346 -0.145756
vn 0.000000 0.000000 0.000000
vn 0.000000 0.000000 0.000000
vn 0.000000 0.000000 0.000000
vn 0.000000 0.000000 0.000000
vn -0.645455 -0.309968 0.698074
vn -0.714091 0.355070 0.603324
vn -0.282515 -0.833672 0.474527
vn 0.000000 -0.998047 0.062461
vn 0.000000 -0.992197 0.124678
vn 0.000000 -1.000000 0.000000
vn 0.000000 -1.000000 -0.000000
vn 0.000000 -1.000000 -0.000000
vn 0.000001 0.000000 -1.000000
vn 0.000000 0.000000 -1.000000
vn -0.000001 0.000000 -1.000000
vn -0.000002 0.000000 -1.000000
vn -0.329827 0.944041 0.000000
vn -0.329827 0.944041 0.000000
vn -0.350976 0.934143 0.064755
vn -0.370462 0.919818 0.129203
vn 0.000000 0.000000 0.000000
vn 0.000000 0.000000 0.000000
vn 0.000000 0.000000 0.000000
vn 0.000000 0.000000 0.000000
vn -0.325431 0.629231 0.705807
vn -0.335473 0.607435 0.720056
vn -0.345253 0.585165 0.733745
vn -0.507547 0.849305 0.145178
vn -0.507547 0.849305 0.145178
vn -0.836346 0.270979 0.476546
vn -0.758482 0.337663 0.557395
vn -0.362828 0.917934 -0.160478
vn 0.159317 -0.987227 -0.000000
vn 0.159317 -0.987227 -0.000000
vn 0.216212 -0.976346 -0.000000
vn 0.216212 -0.976346 -0.000000
vn -0.276351 0.150703 -0.949168
vn -0.276351 0.150703 -0.949168
vn -0.314567 0.551813 -0.772367
vn -0.314567 0.551813 -0.772367
vn 0.159317 -0.987227 0.000000
vn 0.159317 -0.987227 0.000000
vn 0.216212 -0.976346 0.000000
vn 0.216212 -0.976346 0.000000
vn 0.596878 -0.324438 0.733810
vn 0.596878 -0.324438 0.733810
vn 0.494594 -0.697633 0.518348
vn 0.494594 -0.697633 0.518348
vn -0.239826 -0.288876 -0.926841
vn -0.269269 -0.324620 -0.906706
vn -0.246897 -0.582187 -0.774661
vn -0.198299 -0.632447 -0.748791
vn 0.201920 0.979402 0.000000
vn 0.201920 0.979402 0.000000
vn 0.201920 0.979402 0.000000
vn 0.201920 0.979402 0.000000
vn 0.201920 0.979402 0.000000
vn 0.201920 0.979402 0.000000
vn 0.201920 0.979402 0.000000
vn 0.201920 0.979402 0.000000
vn 0.399894 0.654017 0.642143
vn 0.377338 0.617639 0.690028
vn 0.349242 0.682876 0.641647
vn 0.368219 0.719986 0.588248
vn -0.159316 -0.987228 -0.000000
vn -0.159316 -0.987228 -0.000000
vn -0.159316 -0.987228 -0.000000
vn -0.159316 -0.987228 -0.000000
vn 0.272886 0.082805 -0.958476
vn 0.272886 0.082805 -0.958476
vn 0.273989 0.101913 -0.956318
vn 0.273989 0.101913 -0.956318
vn -0.159316 -0.987228 0.000000
vn -0.159316 -0.987228 0.000000
vn -0.159316 -0.987228 0.000000
vn -0.159316 -0.987228 0.000000
vn -0.611736 -0.185633 0.768973
vn -0.611736 -0.185633 0.768973
vn -0.608756 -0.226037 0.760476
vn -0.608756 -0.226037 0.760476
vn -0.201920 0.979402 0.000000
vn -0.201920 0.979402 0.000000
vn -0.201920 0.979402 0.000000
vn -0.201920 0.979402 0.000000
vn 0.275686 -0.185544 -0.943170
vn 0.249464 -0.167897 -0.953718
vn 0.247063 -0.203296 -0.947434
vn 0.274428 -0.226007 -0.934671
vn -0.441662 0.407770 0.799161
vn -0.471806 0.435601 0.766584
vn -0.452686 0.507630 0.733067
vn -0.424400 0.476109 0.770198
vn -0.201920 0.979402 0.000000
vn -0.201920 0.979402 0.000000
vn -0.201920 0.979402 0.000000
vn -0.201920 0.979402 0.000000
vn -0.499150 -0.688471 0.526173
vn -0.499150 -0.688471 0.526173
vn -0.332195 -0.909034 0.251601
vn -0.332195 -0.909034 0.251601
vn -0.212449 -0.977172 0.000000
vn -0.212449 -0.977172 0.000000
vn -0.264959 -0.964260 0.000000
vn -0.264959 -0.964260 0.000000
vn -0.212449 -0.977172 -0.000000
vn -0.212449 -0.977172 -0.000000
vn -0.264959 -0.964260 -0.000000
vn -0.264959 -0.964260 -0.000000
vn 0.314655 0.540617 -0.780209
vn 0.314655 0.540617 -0.780209
vn 0.300056 0.821087 -0.485574
vn 0.300056 0.821087 -0.485574
vn 0.248756 -0.570333 -0.782841
vn 0.200122 -0.623752 -0.755569
vn 0.140265 -0.851289 -0.505601
vn 0.216869 -0.747889 -0.627399
vn -0.201919 0.979402 0.000000
vn -0.201919 0.979402 0.000000
vn -0.201920 0.979402 0.000000
vn -0.201920 0.979402 0.000000
vn -0.201919 0.979402 0.000000
vn -0.201919 0.979402 0.000000
vn -0.201920 0.979402 0.000000
vn -0.201920 0.979402 0.000000
vn -0.156786 0.951554 0.264505
vn -0.244734 0.920633 0.304203
vn -0.244734 0.920633 0.304203
vn -0.156786 0.951554 0.264505
vn 0.240104 0.923448 0.299321
vn 0.154064 0.952783 0.261667
vn 0.154064 0.952783 0.261667
vn 0.240104 0.923448 0.299321
vn 0.201920 0.979402 0.000000
vn 0.201920 0.979402 0.000000
vn 0.201920 0.979402 0.000000
vn 0.201920 0.979402 0.000000
vn -0.214603 -0.756687 -0.617552
vn -0.138435 -0.856135 -0.497865
vn -0.298138 0.831327 -0.469051
vn -0.298138 0.831327 -0.469051
vn 0.272381 -0.962189 -0.000000
vn 0.272381 -0.962189 -0.000000
vn 0.272381 -0.962189 0.000000
vn 0.272381 -0.962189 0.000000
vn 0.327434 -0.913018 0.243282
vn 0.327434 -0.913018 0.243282
vn 0.526072 0.352231 -0.774068
vn 0.562471 0.376600 -0.736070
vn 0.566586 0.403774 -0.718295
vn 0.526742 0.375237 -0.762719
vn 0.341724 0.800341 0.492624
vn 0.375807 0.754714 0.537750
vn 0.378148 0.729855 0.569488
vn 0.341492 0.784218 0.518059
vn 0.382923 0.559620 0.734980
vn 0.355625 0.519724 0.776800
vn 0.354613 0.551233 0.755243
vn 0.383777 0.596762 0.704692
vn 0.415231 -0.727580 0.546086
vn 0.377693 -0.767699 0.517674
vn 0.378622 -0.754637 0.535881
vn 0.419700 -0.707315 0.568821
vn -0.542563 0.363426 -0.757329
vn -0.507751 0.340110 -0.791526
vn -0.508654 0.363451 -0.780496
vn -0.547012 0.391021 -0.740190
vn -0.278031 -0.854656 0.438477
vn -0.301593 -0.836399 0.457689
vn -0.296925 -0.832349 0.468007
vn -0.271748 -0.852734 0.446091
vn -0.322440 0.448765 0.833452
vn -0.349769 0.486804 0.800427
vn -0.353345 0.524859 0.774384
vn -0.323432 0.480205 0.815349
vn -0.273808 0.873613 0.402281
vn -0.250976 0.893781 0.371707
vn -0.244753 0.891076 0.382204
vn -0.269027 0.868302 0.416745
vn 0.337485 0.710588 0.617388
vn 0.339593 0.739838 0.580790
vn 0.381332 0.660030 0.647260
vn 0.381221 0.613535 0.691553
vn 0.526995 0.434350 -0.730491
vn 0.574571 0.473905 -0.667294
vn 0.577350 0.515895 -0.632866
vn 0.526007 0.470015 -0.708804
vn 0.429607 -0.650411 0.626422
vn 0.380377 -0.718833 0.581888
vn 0.380904 -0.695491 0.609265
vn 0.434333 -0.612763 0.660210
vn 0.381873 0.686658 0.618607
vn 0.349650 0.628425 0.694858
vn 0.344944 0.672761 0.654528
vn 0.377755 0.736754 0.560798
vn -0.324092 0.558336 0.763692
vn -0.359115 0.619116 0.698378
vn -0.360044 0.672957 0.646140
vn -0.323113 0.603934 0.728603
vn -0.256899 -0.847886 0.463780
vn -0.285637 -0.822053 0.492586
vn -0.278976 -0.815689 0.506778
vn -0.248314 -0.844890 0.473815
vn -0.555876 0.461320 -0.691510
vn -0.509567 0.422569 -0.749518
vn -0.509061 0.457939 -0.728800
vn -0.559307 0.503139 -0.658808
vn -0.257394 0.854619 0.450972
vn -0.230043 0.884203 0.406528
vn -0.221530 0.879927 0.420302
vn -0.250476 0.846035 0.470625
vn 0.249700 0.887054 0.388310
vn 0.276484 0.861299 0.426288
vn 0.264738 0.847225 0.460570
vn 0.234651 0.880464 0.411973
vn 0.255967 0.889605 0.378264
vn 0.281226 0.866673 0.412055
vn 0.611779 -0.184910 0.769113
vn 0.611779 -0.184910 0.769113
vn 0.608603 -0.227782 0.760078
vn 0.608603 -0.227782 0.760078
vn 0.159316 -0.987228 0.000000
vn 0.159316 -0.987228 0.000000
vn 0.159316 -0.987228 0.000000
vn 0.159316 -0.987228 0.000000
vn 0.159315 -0.987228 -0.000000
vn 0.159315 -0.987228 -0.000000
vn 0.159316 -0.987228 -0.000000
vn 0.159316 -0.987228 -0.000000
vn -0.272859 0.082472 -0.958513
vn -0.272859 0.082472 -0.958513
vn -0.274032 0.102766 -0.956214
vn -0.274032 0.102766 -0.956214
vn -0.249492 -0.167254 -0.953824
vn -0.275695 -0.184817 -0.943311
vn -0.274358 -0.227751 -0.934268
vn -0.246947 -0.204799 -0.947140
vn 0.201922 0.979402 0.000000
vn 0.201922 0.979402 0.000000
vn 0.201921 0.979402 0.000000
vn 0.201921 0.979402 0.000000
vn 0.201922 0.979402 0.000000
vn 0.201922 0.979402 0.000000
vn 0.201921 0.979402 0.000000
vn 0.201921 0.979402 0.000000
vn 0.307907 -0.823359 0.476732
vn 0.312604 -0.827454 0.466475
vn 0.285991 -0.848684 0.444910
vn 0.279550 -0.846942 0.452261
vn 0.296353 -0.812757 0.501599
vn 0.264092 -0.842453 0.469605
vn 0.289449 -0.806118 0.516132
vn 0.255051 -0.839630 0.479553
vn 0.472144 0.434187 0.767178
vn 0.441970 0.406439 0.799669
vn 0.423685 0.478694 0.768988
vn 0.451892 0.510321 0.731687
vn 0.257661 0.838292 0.480497
vn 0.225840 0.876310 0.425531
vn 0.465385 0.758785 0.455699
vn 0.444511 0.725556 0.525337
vn 0.404156 0.790253 0.460607
vn 0.420059 0.821344 0.385934
vn 0.540660 0.609303 0.580032
vn 0.511005 0.576330 0.637744
vn 0.569726 0.523923 0.633181
vn 0.536625 0.493483 0.684476
vn 0.397583 0.326893 -0.857362
vn 0.437285 0.359841 -0.824194
vn 0.428147 0.382570 -0.818737
vn 0.385128 0.344132 -0.856300
vn 0.418154 0.297521 -0.858271
vn 0.451925 0.321682 -0.832037
vn 0.426362 0.285473 -0.858324
vn 0.457584 0.306377 -0.834716
vn 0.892623 0.418080 0.168623
vn 0.830456 0.524224 0.188498
vn 0.831281 0.524744 0.183346
vn 0.904589 0.408354 0.122332
vn 0.941104 0.304957 0.146030
vn 0.957415 0.282718 0.058548
vn 0.000000 0.000000 0.000000
vn 0.000000 0.000000 0.000000
vn 0.000000 0.000000 0.000000
vn 0.000000 0.000000 0.000000
vn 0.012201 0.569342 0.822010
vn 0.012195 0.569284 0.822050
vn 0.012106 0.569294 0.822045
vn 0.012106 0.569352 0.822005
vn 0.012208 0.569399 0.821971
vn 0.012106 0.569410 0.821964
vn 0.538426 0.554880 0.634197
vn 0.512988 0.471977 0.716995
vn 0.339693 0.531352 0.776063
vn 0.387124 0.614721 0.687206
vn 0.391778 0.732698 0.556474
vn 0.356007 0.743954 0.565501
vn -0.000000 0.827094 0.562064
vn -0.000001 0.827094 0.562063
vn -0.391939 0.733529 0.555265
vn -0.356447 0.744741 0.564187
vn -0.539122 0.557446 0.631349
vn -0.388566 0.617273 0.684098
vn -0.514166 0.475508 0.713811
vn -0.341762 0.534963 0.772667
vn -0.012107 0.569352 0.822004
vn -0.012202 0.569342 0.822010
vn -0.012210 0.569400 0.821970
vn -0.012108 0.569411 0.821964
vn -0.012106 0.569294 0.822045
vn -0.012195 0.569284 0.822050
vn 0.000000 0.000000 0.000000
vn 0.000000 0.000000 0.000000
vn 0.000000 0.000000 0.000000
vn 0.000000 0.000000 0.000000
vn -0.892623 0.418080 0.168623
vn -0.941104 0.304957 0.146030
vn -0.957415 0.282718 0.058548
vn -0.904589 0.408354 0.122332
vn -0.830456 0.524224 0.188498
vn -0.831281 0.524744 0.183345
vn -0.437132 0.312076 -0.843519
vn -0.442617 0.296483 -0.846279
vn -0.413015 0.276654 -0.867687
vn -0.404982 0.288997 -0.867451
vn -0.423164 0.350347 -0.835577
vn -0.385170 0.318618 -0.866099
vn -0.414540 0.372909 -0.830118
vn -0.373311 0.335820 -0.864791
vn -0.512000 0.573487 0.639507
vn -0.536198 0.495053 0.683677
vn -0.569239 0.525558 0.632262
vn -0.541777 0.606423 0.582005
vn -0.232970 0.400336 0.886260
vn -0.260067 0.447303 0.855737
vn -0.254259 0.475239 0.842319
vn -0.225212 0.420944 0.878684
vn -0.245935 0.364613 0.898095
vn -0.269298 0.399445 0.876312
vn -0.251200 0.349615 0.902590
vn -0.272861 0.379761 0.883928
vn -0.355628 0.895498 0.267604
vn -0.355628 0.895498 0.267604
vn -0.378868 0.905153 0.192762
vn -0.378868 0.905153 0.192762
vn -0.186603 0.982435 0.000000
vn -0.186603 0.982435 0.000000
vn -0.222811 0.974862 0.000000
vn -0.222811 0.974862 0.000000
vn -0.186603 0.982435 0.000000
vn -0.222811 0.974862 0.000000
vn 0.369004 -0.680597 -0.632948
vn 0.333639 -0.602743 -0.724835
vn 0.316532 -0.723889 -0.613019
vn 0.338470 -0.808640 -0.481185
vn 0.379034 -0.255095 -0.889528
vn 0.340765 -0.229341 -0.911747
vn 0.342893 -0.282895 -0.895765
vn 0.383206 -0.316421 -0.867774
vn 0.000000 0.000000 -1.000000
vn 0.000000 0.000000 -1.000000
vn -0.000000 0.000000 -1.000000
vn 0.000000 0.000000 -1.000000
vn 0.000000 0.000000 -1.000000
vn -0.000000 0.000000 -1.000000
vn 0.000000 0.000000 -1.000000
vn 0.000000 0.000000 -1.000000
vn 0.000000 0.000000 -1.000000
vn -0.000000 0.000000 -1.000000
vn 0.000000 0.000000 -1.000000
vn -0.000000 0.000000 -1.000000
vn 0.000000 0.000000 -1.000000
vn 0.000000 0.000000 -1.000000
vn -0.342962 -0.285266 -0.894987
vn -0.340715 -0.228400 -0.912001
vn -0.378949 -0.254029 -0.889869
vn -0.383359 -0.319166 -0.866700
vn -0.343361 -0.414525 -0.842777
vn -0.386436 -0.466786 -0.795474
vn -0.331480 -0.618713 -0.712260
vn -0.366223 -0.696848 -0.616671
vn -0.313472 -0.736543 -0.599366
vn -0.334623 -0.819779 -0.464747
vn 0.186603 0.982435 0.000000
vn 0.186603 0.982435 0.000000
vn 0.222811 0.974862 0.000000
vn 0.222811 0.974862 0.000000
vn 0.186603 0.982435 0.000000
vn 0.222811 0.974862 0.000000
vn 0.371418 0.909926 0.184616
vn 0.348720 0.900393 0.260168
vn 0.348720 0.900393 0.260168
vn 0.371418 0.909926 0.184616
vn 0.299954 0.465931 0.832428
vn 0.304653 0.445233 0.841994
vn 0.281747 0.411757 0.866646
vn 0.275526 0.427820 0.860846
vn 0.287629 0.516352 0.806629
vn 0.259980 0.466380 0.845518
vn 0.279812 0.545733 0.789861
vn 0.250569 0.488699 0.835696
vn 0.000000 0.000000 0.000000
vn 0.000000 0.000000 0.000000
vn 0.000000 0.000000 0.000000
vn 0.000000 0.000000 0.000000
vn 0.000000 0.000000 0.000000
vn 0.000000 0.000000 0.000000
vn 0.000000 0.000000 0.000000
vn 0.000000 0.000000 0.000000
vn -0.381714 0.606417 0.697534
vn -0.404792 0.642643 0.650503
vn -0.376201 0.704505 0.601785
vn -0.356366 0.667356 0.653941
vn -0.360321 0.699582 0.617053
vn -0.323509 0.764252 0.557907
vn -0.321084 0.738720 0.592619
vn -0.359987 0.660166 0.659234
vn -0.358249 0.759469 0.543014
vn -0.326274 0.803515 0.497904
vn -0.356539 0.781203 0.512448
vn -0.326951 0.818055 0.473170
vn -0.598296 -0.315104 0.736717
vn -0.598296 -0.315104 0.736717
vn -0.159318 -0.987227 0.000000
vn -0.159318 -0.987227 0.000000
vn -0.159318 -0.987227 -0.000000
vn -0.159318 -0.987227 -0.000000
vn 0.276142 0.145824 -0.949990
vn 0.276142 0.145824 -0.949990
vn 0.269900 -0.315268 -0.909813
vn 0.240601 -0.280843 -0.929106
vn 0.343646 -0.401912 -0.848749
vn 0.386602 -0.452388 -0.803669
vn -0.201919 0.979402 0.000000
vn -0.201919 0.979402 0.000000
vn -0.201919 0.979402 0.000000
vn -0.201919 0.979402 0.000000
vn -0.357591 -0.776070 0.519465
vn -0.357338 -0.787579 0.502025
vn -0.388974 -0.756027 0.526424
vn -0.392324 -0.738798 0.547960
vn -0.357731 -0.745267 0.562678
vn -0.399579 -0.691608 0.601676
vn -0.357403 -0.725511 0.588131
vn -0.403011 -0.660874 0.633110
vn -0.414141 0.775560 0.476440
vn -0.450673 0.714314 0.535396
vn -0.472270 0.747851 0.466562
vn -0.431147 0.807408 0.402746
vn 0.000000 0.000000 0.000000
vn 0.000000 0.000000 0.000000
vn 0.000000 0.000000 0.000000
vn 0.000000 0.000000 0.000000
vn 0.000000 0.000000 0.000000
vn 0.000000 0.000000 0.000000
vn 0.000000 0.000000 0.000000
vn 0.000000 0.000000 0.000000
vn 0.000000 0.000000 0.000000
vn 0.000000 0.000000 0.000000
vn 0.000000 0.000000 0.000000
vn 0.000000 0.000000 0.000000
vn 0.000000 0.000000 0.000000
vn 0.000000 0.000000 0.000000
vn 0.000000 0.000000 0.000000
vn 0.000000 0.000000 0.000000
vn 0.000000 0.000000 0.000000
vn 0.000000 0.000000 0.000000
vn 0.000000 0.000000 0.000000
vn 0.000000 0.000000 0.000000
vn 0.000000 0.000000 0.000000
vn 0.000000 0.000000 0.000000
vn 0.000000 0.000000 0.000000
vn 0.000000 0.000000 0.000000
vn -0.254614 0.888005 0.382909
vn -0.254614 0.888005 0.382909
vn -0.254614 0.888005 0.382909
vn -0.254614 0.888005 0.382909
vn 0.200565 -0.699504 -0.685907
vn 0.200565 -0.699504 -0.685907
vn 0.200565 -0.699504 -0.685907
vn 0.200565 -0.699504 -0.685907
vn -0.948744 0.316045 0.000000
vn -0.948744 0.316045 0.000000
vn -0.948744 0.316045 0.000000
vn -0.948744 0.316045 0.000000
vn 0.254614 0.888005 0.382909
vn 0.254614 0.888005 0.382909
vn 0.254614 0.888005 0.382909
vn 0.254614 0.888005 0.382909
vn 0.948744 0.316045 0.000000
vn 0.948744 0.316045 0.000000
vn 0.948744 0.316045 0.000000
vn 0.948744 0.316045 0.000000
vn -0.200564 -0.699504 -0.685907
vn -0.200564 -0.699504 -0.685907
vn -0.200564 -0.699504 -0.685907
vn -0.200564 -0.699504 -0.685907
vn 0.000001 1.000000 0.000000
vn 0.000001 1.000000 0.000000
vn 0.000001 0.999198 0.040053
vn 0.000001 0.999198 0.040053
vn -0.866024 0.500002 0.000000
vn -0.866024 0.500002 0.000000
vn -0.865330 0.499601 0.040053
vn -0.865330 0.499601 0.040053
vn -0.866026 -0.499999 0.000000
vn -0.866026 -0.499999 0.000000
vn -0.865331 -0.499597 0.040053
vn -0.865331 -0.499597 0.040053
vn -0.000001 -1.000000 0.000000
vn -0.000001 -1.000000 0.000000
vn -0.000001 -0.999198 0.040053
vn -0.000001 -0.999198 0.040053
vn 0.866024 -0.500002 0.000000
vn 0.866024 -0.500002 0.000000
vn 0.865330 -0.499600 0.040053
vn 0.865330 -0.499600 0.040053
vn 0.866026 0.499999 0.000000
vn 0.866026 0.499999 0.000000
vn 0.865331 0.499598 0.040053
vn 0.865331 0.499598 0.040053
vn 0.000000 0.000000 -1.000000
vn 0.000000 0.000000 -1.000000
vn 0.000000 0.000000 -1.000000
vn 0.000000 0.000000 -1.000000
vn 0.000000 0.000000 -1.000000
vn 0.000000 0.000000 -1.000000
vn 0.000000 0.000000 -1.000000
vn 0.000001 0.000000 1.000000
vn 0.000001 0.000000 1.000000
vn 0.000001 0.000000 1.000000
vn 0.000000 0.000000 1.000000
vn 0.000001 0.000000 1.000000
vn 0.000001 0.000000 1.000000
vn 0.000000 0.000000 1.000000
vn 0.866026 0.499999 0.000000
vn 0.866026 0.499999 0.000000
vn 0.866026 0.499999 0.000000
vn 0.866026 0.499999 0.000000
vn 0.866024 -0.500002 0.000000
vn 0.866024 -0.500002 0.000000
vn 0.866024 -0.500002 0.000000
vn 0.866024 -0.500002 0.000000
vn -0.000001 -1.000000 0.000000
vn -0.000001 -1.000000 0.000000
vn -0.000001 -1.000000 0.000000
vn -0.000001 -1.000000 0.000000
vn -0.866026 -0.499999 0.000000
vn -0.866026 -0.499999 0.000000
vn -0.866026 -0.499999 0.000000
vn -0.866026 -0.499999 0.000000
vn -0.866024 0.500002 0.000000
vn -0.866024 0.500002 0.000000
vn -0.866024 0.500002 0.000000
vn -0.866024 0.500002 0.000000
vn 0.000001 1.000000 0.000000
vn 0.000001 1.000000 0.000000
vn 0.000001 1.000000 0.000000
vn 0.000001 1.000000 0.000000
vn 0.866026 0.499999 0.000000
vn 0.866026 0.499999 0.000000
vn 0.866026 0.499999 0.000000
vn 0.866026 0.499999 0.000000
vn 0.866025 -0.500001 0.000000
vn 0.866025 -0.500001 0.000000
vn 0.866025 -0.500001 0.000000
vn 0.866025 -0.500001 0.000000
vn -0.000001 -1.000000 0.000000
vn -0.000001 -1.000000 0.000000
vn -0.000001 -1.000000 0.000000
vn -0.000001 -1.000000 0.000000
vn -0.866026 -0.499999 0.000000
vn -0.866026 -0.499999 0.000000
vn -0.866026 -0.499999 0.000000
vn -0.866026 -0.499999 0.000000
vn -0.866025 0.500001 0.000000
vn -0.866025 0.500001 0.000000
vn -0.866025 0.500001 0.000000
vn -0.866025 0.500001 0.000000
vn 0.000001 1.000000 0.000000
vn 0.000001 1.000000 0.000000
vn 0.000001 1.000000 0.000000
vn 0.000001 1.000000 0.000000
vn 0.863248 0.498394 0.080041
vn 0.863248 0.498394 0.080041
vn 0.863246 -0.498397 0.080041
vn 0.863246 -0.498397 0.080041
vn -0.000001 -0.996792 0.080041
vn -0.000001 -0.996792 0.080041
vn -0.863248 -0.498394 0.080041
vn -0.863248 -0.498394 0.080041
vn -0.863246 0.498397 0.080041
vn -0.863246 0.498397 0.080041
vn 0.000001 0.996792 0.080041
vn 0.000001 0.996792 0.080041
vn -0.844321 -0.487467 -0.222479
vn -0.844321 -0.487467 -0.222479
vn -0.844321 -0.487467 -0.222479
vn -0.844321 -0.487467 -0.222479
vn 0.853058 0.492512 0.172408
vn 0.853058 0.492512 0.172408
vn 0.853058 0.492512 0.172408
vn 0.853058 0.492512 0.172408
vn -0.844320 0.487470 -0.222479
vn -0.844320 0.487470 -0.222479
vn -0.844320 0.487470 -0.222479
vn -0.844320 0.487470 -0.222479
vn 0.853057 -0.492514 0.172408
vn 0.853057 -0.492514 0.172408
vn 0.853057 -0.492514 0.172408
vn 0.853057 -0.492514 0.172408
vn 0.000001 0.974937 -0.222479
vn 0.000001 0.974937 -0.222479
vn 0.000001 0.974937 -0.222479
vn 0.000001 0.974937 -0.222479
vn -0.000001 -0.985026 0.172408
vn -0.000001 -0.985026 0.172408
vn -0.000001 -0.985026 0.172408
vn -0.000001 -0.985026 0.172408
vn 0.844321 0.487467 -0.222479
vn 0.844321 0.487467 -0.222479
vn 0.844321 0.487467 -0.222479
vn 0.844321 0.487467 -0.222479
vn -0.853058 -0.492511 0.172408
vn -0.853058 -0.492511 0.172408
vn -0.853058 -0.492511 0.172408
vn -0.853058 -0.492511 0.172408
vn 0.844320 -0.487470 -0.222479
vn 0.844320 -0.487470 -0.222479
vn 0.844320 -0.487470 -0.222479
vn 0.844320 -0.487470 -0.222479
vn -0.853056 0.492515 0.172408
vn -0.853056 0.492515 0.172408
vn -0.853056 0.492515 0.172408
vn -0.853056 0.492515 0.172408
vn -0.000001 -0.974937 -0.222479
vn -0.000001 -0.974937 -0.222479
vn -0.000001 -0.974937 -0.222479
vn -0.000001 -0.974937 -0.222479
vn 0.000001 0.985026 0.172408
vn 0.000001 0.985026 0.172408
vn 0.000001 0.985026 0.172408
vn 0.000001 0.985026 0.172408
vn 0.000001 1.000000 0.000000
vn 0.000001 1.000000 0.000000
vn 0.000001 0.999198 0.040053
vn 0.000001 0.999198 0.040053
vn -0.866024 0.500002 0.000000
vn -0.866024 0.500002 0.000000
vn -0.865330 0.499601 0.040053
vn -0.865330 0.499601 0.040053
vn -0.866027 -0.499998 0.000000
vn -0.866027 -0.499998 0.000000
vn -0.865332 -0.499597 0.040053
vn -0.865332 -0.499597 0.040053
vn -0.000001 -1.000000 0.000000
vn -0.000001 -1.000000 0.000000
vn -0.000001 -0.999198 0.040053
vn -0.000001 -0.999198 0.040053
vn 0.866024 -0.500002 0.000000
vn 0.866024 -0.500002 0.000000
vn 0.865330 -0.499600 0.040053
vn 0.865330 -0.499600 0.040053
vn 0.866026 0.499998 0.000000
vn 0.866026 0.499998 0.000000
vn 0.865332 0.499597 0.040053
vn 0.865332 0.499597 0.040053
vn 0.000000 0.000000 -1.000000
vn 0.000000 0.000000 -1.000000
vn 0.000000 0.000000 -1.000000
vn 0.000000 0.000000 -1.000000
vn 0.000000 0.000000 -1.000000
vn 0.000000 0.000000 -1.000000
vn 0.000000 0.000000 -1.000000
vn 0.000001 0.000000 1.000000
vn 0.000001 0.000000 1.000000
vn 0.000001 0.000000 1.000000
vn 0.000000 0.000000 1.000000
vn 0.000001 0.000000 1.000000
vn 0.000001 0.000000 1.000000
vn 0.000000 0.000000 1.000000
vn 0.866026 0.499999 0.000000
vn 0.866026 0.499999 0.000000
vn 0.866026 0.499999 0.000000
vn 0.866026 0.499999 0.000000
vn 0.866025 -0.500000 0.000000
vn 0.866025 -0.500000 0.000000
vn 0.866025 -0.500000 0.000000
vn 0.866025 -0.500000 0.000000
vn -0.000001 -1.000000 0.000000
vn -0.000001 -1.000000 0.000000
vn -0.000001 -1.000000 0.000000
vn -0.000001 -1.000000 0.000000
vn -0.866026 -0.499999 0.000000
vn -0.866026 -0.499999 0.000000
vn -0.866026 -0.499999 0.000000
vn -0.866026 -0.499999 0.000000
vn -0.866024 0.500002 0.000000
vn -0.866024 0.500002 0.000000
vn -0.866024 0.500002 0.000000
vn -0.866024 0.500002 0.000000
vn 0.000001 1.000000 0.000000
vn 0.000001 1.000000 0.000000
vn 0.000001 1.000000 0.000000
vn 0.000001 1.000000 0.000000
vn 0.866027 0.499998 0.000000
vn 0.866027 0.499998 0.000000
vn 0.866027 0.499998 0.000000
vn 0.866027 0.499998 0.000000
vn 0.866025 -0.500000 0.000000
vn 0.866025 -0.500000 0.000000
vn 0.866025 -0.500000 0.000000
vn 0.866025 -0.500000 0.000000
vn -0.000001 -1.000000 0.000000
vn -0.000001 -1.000000 0.000000
vn -0.000001 -1.000000 0.000000
vn -0.000001 -1.000000 0.000000
vn -0.866027 -0.499998 0.000000
vn -0.866027 -0.499998 0.000000
vn -0.866027 -0.499998 0.000000
vn -0.866027 -0.499998 0.000000
vn -0.866025 0.500000 0.000000
vn -0.866025 0.500000 0.000000
vn -0.866025 0.500000 0.000000
vn -0.866025 0.500000 0.000000
vn 0.000001 1.000000 0.000000
vn 0.000001 1.000000 0.000000
vn 0.000001 1.000000 0.000000
vn 0.000001 1.000000 0.000000
vn 0.863248 0.498394 0.080041
vn 0.863248 0.498394 0.080041
vn 0.863246 -0.498397 0.080041
vn 0.863246 -0.498397 0.080041
vn -0.000001 -0.996792 0.080041
vn -0.000001 -0.996792 0.080041
vn -0.863248 -0.498393 0.080041
vn -0.863248 -0.498393 0.080041
vn -0.863246 0.498397 0.080041
vn -0.863246 0.498397 0.080041
vn 0.000001 0.996792 0.080041
vn 0.000001 0.996792 0.080041
vn -0.844322 -0.487467 -0.222479
vn -0.844322 -0.487467 -0.222479
vn -0.844322 -0.487467 -0.222479
vn -0.844322 -0.487467 -0.222479
vn 0.853058 0.492512 0.172408
vn 0.853058 0.492512 0.172408
vn 0.853058 0.492512 0.172408
vn 0.853058 0.492512 0.172408
vn -0.844320 0.487470 -0.222479
vn -0.844320 0.487470 -0.222479
vn -0.844320 0.487470 -0.222479
vn -0.844320 0.487470 -0.222479
vn 0.853057 -0.492514 0.172408
vn 0.853057 -0.492514 0.172408
vn 0.853057 -0.492514 0.172408
vn 0.853057 -0.492514 0.172408
vn 0.000001 0.974938 -0.222479
vn 0.000001 0.974938 -0.222479
vn 0.000001 0.974938 -0.222479
vn 0.000001 0.974938 -0.222479
vn -0.000001 -0.985026 0.172408
vn -0.000001 -0.985026 0.172408
vn -0.000001 -0.985026 0.172408
vn -0.000001 -0.985026 0.172408
vn 0.844322 0.487467 -0.222479
vn 0.844322 0.487467 -0.222479
vn 0.844322 0.487467 -0.222479
vn 0.844322 0.487467 -0.222479
vn -0.853058 -0.492512 0.172408
vn -0.853058 -0.492512 0.172408
vn -0.853058 -0.492512 0.172408
vn -0.853058 -0.492512 0.172408
vn 0.844320 -0.487470 -0.222479
vn 0.844320 -0.487470 -0.222479
vn 0.844320 -0.487470 -0.222479
vn 0.844320 -0.487470 -0.222479
vn -0.853056 0.492515 0.172408
vn -0.853056 0.492515 0.172408
vn -0.853056 0.492515 0.172408
vn -0.853056 0.492515 0.172408
vn -0.000001 -0.974938 -0.222479
vn -0.000001 -0.974938 -0.222479
vn -0.000001 -0.974938 -0.222479
vn -0.000001 -0.974938 -0.222479
vn 0.000001 0.985026 0.172408
vn 0.000001 0.985026 0.172408
vn 0.000001 0.985026 0.172408
vn 0.000001 0.985026 0.172408
s 1
g polySurface1
usemtl blinn1SG
f 145/1/1 2/2/2 7/3/3 144/4/4
f 2/2/2 3/7/5 8/8/6 7/3/3
f 3/7/5 4/15/7 9/16/8 8/8/6
f 125/21/9 5/32/10 10/33/11 124/22/12
f 144/83/4 7/84/3 12/85/13 143/86/14
f 7/104/3 8/105/6 13/106/15 12/107/13
f 8/105/6 9/108/8 14/109/16 13/106/15
f 124/110/12 10/111/11 15/112/17 123/113/18
s 3
f 160/133/19 95/134/20 312/135/21 313/136/22
f 95/142/20 98/143/23 311/144/24 312/145/21
f 98/143/23 100/148/25 310/149/26 311/144/24
f 140/199/27 102/200/28 308/201/29 309/202/30
s 5
f 159/170/31 96/159/32 104/168/33 158/180/34
f 96/159/32 99/158/35 106/167/36 104/168/33
f 99/158/35 101/166/37 107/177/38 106/167/36
f 139/176/39 103/188/40 108/189/41 138/182/42
s 6
f 155/208/43 19/209/44 24/210/45 154/211/46
f 19/209/44 20/212/47 25/213/48 24/210/45
f 20/212/47 21/218/49 26/219/50 25/213/48
f 135/224/51 22/230/52 27/231/53 134/225/54
f 154/211/46 24/210/45 29/214/55 153/215/56
f 24/210/45 25/213/48 30/220/57 29/214/55
f 25/213/48 26/219/50 31/226/58 30/220/57
f 134/225/54 27/231/53 32/236/59 133/232/60
f 153/215/56 29/214/55 34/221/61 152/222/62
s 8
f 389/283/63 390/284/64 391/285/65 392/286/66
f 390/284/64 393/289/67 394/290/68 391/285/65
s 6
f 133/232/60 32/236/59 37/244/69 132/237/70
s 9
f 332/292/71 333/293/72 39/294/73 151/295/74
f 333/293/72 334/298/75 40/299/76 39/294/73
f 334/298/75 335/308/77 41/309/78 40/299/76
f 336/320/79 337/332/80 42/333/81 131/321/82
f 151/295/74 39/294/73 44/300/83 150/301/84
f 39/294/73 40/299/76 45/310/85 44/300/83
f 40/299/76 41/309/78 46/322/86 45/310/85
f 131/321/82 42/333/81 47/345/87 130/334/88
f 150/301/84 44/300/83 49/311/89 149/312/90
f 44/300/83 45/310/85 50/323/91 49/311/89
f 45/310/85 46/322/86 51/335/92 50/323/91
f 130/334/88 47/345/87 52/356/93 129/346/94
s 11
f 149/23/95 49/24/96 54/18/97 148/17/98
f 49/24/96 50/34/99 55/25/100 54/18/97
f 50/34/99 51/40/101 56/36/102 55/25/100
f 129/46/103 52/53/104 57/48/105 128/42/106
f 148/17/98 54/18/97 59/12/107 147/11/108
f 54/18/97 55/25/100 60/26/109 59/12/107
f 55/25/100 56/36/102 61/30/110 60/26/109
f 128/42/106 57/48/105 62/45/111 127/38/112
f 147/11/108 59/12/107 64/6/113 146/5/114
s off
f 90/368/115 91/369/116 92/370/117 93/371/118
s 11
f 60/26/109 61/30/110 66/20/119 65/13/120
f 127/38/112 62/45/111 67/39/121 126/31/122
f 146/5/114 64/6/113 2/2/123 145/1/124
f 64/6/113 65/13/120 3/7/125 2/2/123
f 65/13/120 66/20/119 4/15/126 3/7/125
f 126/31/122 67/39/121 5/32/127 125/21/128
s 13
f 57/48/129 52/53/130 47/58/131 68/55/132
f 62/45/133 57/48/129 68/55/132 69/51/134
f 67/39/135 62/45/133 69/51/134 70/52/136
f 5/118/137 67/119/135 70/114/136 10/111/138
s 14
f 162/76/139 161/78/140 163/82/141 164/79/142
f 165/77/143 162/76/139 164/79/142 166/80/144
s 13
f 70/114/136 69/120/134 71/121/145 72/115/146
f 10/111/138 70/114/136 72/115/146 15/112/147
s 14
f 164/280/142 163/282/141 341/281/148 342/276/149
f 166/279/144 164/280/142 342/276/149 343/275/150
s 13
f 72/115/146 71/121/145 303/126/151 304/122/152
f 15/112/147 72/115/146 304/122/152 305/123/153
s 15
f 48/35/154 53/27/155 73/37/156 43/41/157
f 53/27/155 58/19/158 74/29/159 73/37/156
f 58/19/158 63/14/160 75/28/161 74/29/159
f 63/91/160 1/92/162 6/87/163 75/89/161
s 16
f 170/65/164 171/63/165 172/70/166 173/72/167
f 171/63/165 174/62/168 175/69/169 172/70/166
s 15
f 74/95/159 75/89/161 77/90/170 76/96/171
f 75/89/161 6/87/163 11/88/172 77/90/170
s 16
f 173/273/167 172/266/166 328/259/173 329/265/174
f 172/266/166 175/267/169 327/260/175 328/259/173
s 15
f 76/96/171 77/90/170 318/94/176 319/99/177
f 77/90/170 11/88/172 317/93/178 318/94/176
s off
f 143/372/179 12/373/180 79/374/181 142/375/182
f 317/380/183 11/381/184 78/382/185 316/383/186
f 12/373/187 13/376/188 81/377/189 79/374/190
f 13/410/191 14/411/192 82/412/193 81/413/194
f 123/414/195 15/415/196 83/416/197 122/417/198
f 15/415/199 305/418/200 306/419/201 83/416/202
f 19/400/203 155/395/204 156/394/205 85/401/206
f 18/390/207 16/386/208 80/387/209 86/391/210
f 20/420/211 19/421/212 85/422/213 87/423/214
f 21/424/215 20/420/216 87/423/217 88/425/218
f 17/433/219 22/428/220 89/429/221 84/434/222
f 22/428/223 135/427/224 136/426/225 89/429/226
f 59/442/227 60/443/228 91/444/229 90/445/230
f 60/448/231 65/449/232 92/450/233 91/451/234
f 65/452/235 64/453/236 93/454/237 92/455/238
f 64/446/239 59/442/240 90/445/241 93/447/242
s 17
f 142/161/243 79/152/244 112/146/245 141/156/246
s 18
f 316/456/247 78/457/248 113/458/249 315/459/250
s 19
f 79/152/251 81/153/252 111/147/253 112/146/254
s 20
f 81/153/255 82/160/256 110/154/257 111/147/258
s 21
f 122/171/259 83/181/260 109/173/261 121/162/262
s 22
f 83/462/263 306/463/264 307/464/265 109/465/266
s 23
f 85/401/267 156/394/268 157/402/269 116/406/270
s 24
f 86/195/271 80/196/272 114/192/273 115/191/274
s 25
f 87/184/275 85/185/276 116/179/277 117/178/278
s 26
f 88/190/279 87/184/280 117/178/281 118/183/282
s 27
f 84/197/283 89/198/284 119/194/285 120/193/286
s 28
f 89/429/287 136/426/288 137/430/289 119/432/290
s 21
f 140/163/291 121/162/262 109/173/261 102/174/292
s 20
f 111/147/258 110/154/257 100/148/293 98/143/294
s 19
f 112/146/254 111/147/253 98/143/295 95/142/296
s 17
f 160/155/297 141/156/246 112/146/245 95/142/298
s 18
f 315/396/250 113/404/249 94/405/299 314/397/300
s 24
f 115/191/274 114/192/273 97/186/301 105/187/302
s 23
f 116/406/270 157/402/269 158/407/303 104/409/304
s 25
f 117/178/278 116/179/277 104/168/305 106/167/306
s 26
f 118/183/282 117/178/281 106/167/307 107/177/308
s 28
f 119/432/290 137/430/289 138/435/309 108/437/310
s 27
f 120/193/286 119/194/285 108/189/311 103/188/312
s 22
f 109/465/266 307/464/265 308/468/313 102/469/314
s 21
f 82/160/315 122/171/259 121/162/262 110/154/316
s off
f 14/117/317 123/113/318 122/124/319 82/125/320
s 1
f 9/116/8 124/110/12 123/113/18 14/117/16
f 4/15/7 125/21/9 124/22/12 9/16/8
s 11
f 66/20/119 126/31/122 125/21/128 4/15/126
f 61/30/110 127/38/112 126/31/122 66/20/119
f 56/36/102 128/42/106 127/38/112 61/30/110
f 51/40/101 129/46/103 128/42/106 56/36/102
s 9
f 46/322/86 130/334/88 129/346/94 51/335/92
f 41/309/78 131/321/82 130/334/88 46/322/86
f 335/308/77 336/320/79 131/321/82 41/309/78
s 6
f 31/226/58 133/232/60 132/237/70 36/238/321
f 26/219/50 134/225/54 133/232/60 31/226/58
f 21/218/49 135/224/51 134/225/54 26/219/50
s off
f 136/426/322 135/427/323 21/424/324 88/425/325
s 28
f 137/430/289 136/426/288 88/425/326 118/431/327
f 138/435/309 137/430/289 118/431/327 107/436/328
s 5
f 101/166/37 139/176/39 138/182/42 107/177/38
s 3
f 100/205/25 140/199/27 309/202/30 310/206/26
s 21
f 110/154/316 121/162/262 140/163/291 100/148/329
s 17
f 78/172/330 142/161/243 141/156/246 113/164/331
s off
f 11/378/332 143/372/333 142/375/334 78/379/335
s 1
f 6/87/336 144/83/4 143/86/14 11/88/337
f 1/9/338 145/1/1 144/4/4 6/10/336
s 11
f 63/14/339 146/5/114 145/1/124 1/9/340
f 58/19/341 147/11/108 146/5/114 63/14/339
f 53/27/342 148/17/98 147/11/108 58/19/341
f 48/35/343 149/23/95 148/17/98 53/27/342
s 9
f 43/313/344 150/301/84 149/312/90 48/324/345
f 38/303/346 151/295/74 150/301/84 43/313/344
f 331/302/347 332/292/71 151/295/74 38/303/346
s 6
f 28/223/348 153/215/56 152/222/62 33/227/349
f 23/217/350 154/211/46 153/215/56 28/223/348
f 18/216/351 155/208/43 154/211/46 23/217/350
s off
f 156/394/352 155/395/353 18/390/354 86/391/355
s 23
f 157/402/269 156/394/268 86/391/356 115/403/357
f 158/407/303 157/402/269 115/403/357 105/408/358
s 5
f 97/186/359 159/170/31 158/180/34 105/187/360
s 3
f 94/139/361 160/133/19 313/136/22 314/140/362
s 17
f 113/164/331 141/156/246 160/155/297 94/165/363
s 29
f 223/66/364 224/71/365 192/75/366 193/73/367
s 30
f 224/361/368 225/354/369 191/360/370 192/364/371
s 31
f 222/67/372 223/66/373 193/73/374 194/74/375
s 32
f 221/476/376 222/477/377 194/478/378 187/479/379
s 33
f 225/354/380 339/353/381 340/359/382 191/360/383
s 34
f 226/257/384 227/249/385 189/256/386 190/264/387
s 35
f 227/249/388 228/248/389 188/255/390 189/256/391
s 36
f 298/484/392 232/485/393 197/486/394 297/487/395
s 37
f 43/41/396 73/37/397 371/44/398 372/47/399
s 38
f 38/303/400 43/313/401 372/325/402 373/314/403
s 39
f 73/37/404 74/29/405 370/43/406 371/44/407
s 40
f 74/496/408 76/497/409 369/498/410 370/499/411
s 41
f 28/223/412 33/227/413 376/233/414 377/228/415
s 42
f 331/302/416 38/303/417 373/314/418 374/315/419
s 43
f 199/504/420 322/505/421 365/506/422 366/507/423
s 44
f 23/217/424 28/223/425 377/228/426 378/229/427
s 40
f 180/56/428 179/68/429 175/69/430 174/62/431
s 39
f 181/57/432 180/56/433 174/62/434 171/63/435
s 37
f 182/59/436 181/57/437 171/63/438 170/65/439
s 38
f 183/515/440 182/516/441 170/517/442 173/518/443
s 42
f 330/519/444 183/520/445 173/521/446 329/522/447
s 41
f 185/240/448 184/245/449 177/251/450 176/246/451
s 44
f 186/241/452 185/240/453 176/246/454 178/247/455
s 52
f 179/268/456 326/261/457 327/260/458 175/267/459
s 53
f 344/274/460 187/278/461 166/279/462 343/275/463
s 35
f 189/256/391 188/255/390 169/262/464 168/263/465
s 34
f 190/264/387 189/256/386 168/263/466 167/272/467
s 33
f 191/523/383 340/524/382 341/525/468 163/526/469
s 30
f 192/527/371 191/528/370 163/529/470 161/530/471
s 29
f 193/73/367 192/75/366 161/78/472 162/76/473
s 31
f 194/74/375 193/73/374 162/76/474 165/77/475
s 32
f 187/81/379 194/74/378 165/77/476 166/80/477
s 54
f 303/531/478 71/532/479 208/533/480 302/534/481
s 55
f 221/547/482 187/548/483 207/549/484 220/550/485
s 56
f 187/562/486 344/563/487 345/564/488 207/565/489
s 57
f 188/579/490 228/580/491 229/581/492 210/582/493
s 58
f 76/594/494 319/595/495 320/596/496 218/597/497
s 59
f 23/610/498 378/611/499 379/612/500 217/613/501
s 60
f 326/626/502 179/627/503 215/628/504 325/629/505
s 61
f 369/641/506 76/642/507 218/643/508 368/644/509
s 55
f 232/666/510 219/667/511 203/668/512 197/669/513
s 54
f 301/536/514 204/535/515 195/539/516 300/540/517
s 57
f 206/573/518 230/577/519 231/578/520 198/576/521
s 56
f 203/488/522 346/489/523 297/487/524 197/486/525
s 55
f 220/550/485 207/549/484 203/551/512 219/552/511
s 54
f 302/534/481 208/533/480 204/535/515 301/536/514
s 57
f 210/582/493 229/581/492 230/585/519 206/586/518
s 56
f 207/565/489 345/564/488 346/568/523 203/569/522
s 60
f 324/659/526 211/655/527 202/656/528 323/658/529
s 59
f 213/617/530 380/616/531 381/621/532 200/622/533
s 58
f 214/601/534 321/600/535 322/605/536 199/606/537
s 61
f 367/646/538 214/645/539 199/649/540 366/650/541
s 60
f 325/629/505 215/628/504 211/630/527 324/631/526
s 59
f 217/613/501 379/612/500 380/616/531 213/617/530
s 58
f 218/597/497 320/596/496 321/600/535 214/601/534
s 61
f 368/644/509 218/643/508 214/645/539 367/646/538
s 55
f 208/557/542 245/553/543 246/555/544 204/558/545
f 71/556/546 244/554/547 245/553/543 208/557/542
s 32
f 71/482/548 69/483/549 243/481/550 244/480/551
s 31
f 69/51/552 68/55/553 242/60/554 243/61/555
s 29
f 68/55/556 47/58/557 241/64/558 242/60/559
s 30
f 47/345/560 42/333/561 240/344/562 241/355/563
s 33
f 42/333/564 337/332/565 338/343/566 240/344/567
s 34
f 37/244/568 32/236/569 238/243/570 239/250/571
s 35
f 32/236/572 27/231/573 237/242/574 238/243/575
s 57
f 236/584/576 237/583/577 27/587/578 209/588/579
f 235/589/580 236/584/576 209/588/579 205/590/581
f 234/592/582 235/589/580 205/590/581 196/593/583
s 36
f 300/670/584 195/671/585 233/672/586 299/673/587
s 55
f 204/558/545 246/555/544 233/559/588 195/561/589
s 36
f 299/673/587 233/672/586 232/674/393 298/675/392
s 57
f 231/591/520 230/585/519 235/589/580 234/592/582
f 230/585/519 229/581/492 236/584/576 235/589/580
f 229/581/492 228/580/491 237/583/577 236/584/576
s 35
f 238/243/575 237/242/574 228/248/389 227/249/388
s 34
f 239/250/571 238/243/570 227/249/385 226/257/384
s 33
f 240/344/567 338/343/566 339/353/381 225/354/380
s 30
f 241/355/563 240/344/562 225/354/369 224/361/368
s 29
f 242/60/559 241/64/558 224/71/365 223/66/364
s 31
f 243/61/555 242/60/554 223/66/373 222/67/372
s 32
f 244/480/551 243/481/550 222/477/377 221/476/376
s 55
f 245/553/543 244/554/547 221/547/482 220/550/485
f 246/555/544 245/553/543 220/550/485 219/552/511
f 233/559/588 246/555/544 219/552/511 232/560/510
s 36
f 231/492/590 248/490/591 247/491/592 198/493/593
f 234/494/594 249/495/595 248/490/591 231/492/590
f 196/679/596 250/676/597 249/677/595 234/680/594
s 54
f 205/545/598 251/541/599 250/544/600 196/546/601
f 209/543/602 252/538/603 251/541/599 205/545/598
f 27/542/604 253/537/605 252/538/603 209/543/602
s 13
f 254/127/606 253/129/607 27/132/608 22/130/609
f 255/128/610 254/127/606 22/130/609 17/131/611
s off
f 256/438/612 255/439/613 17/433/614 84/434/615
s 22
f 257/467/616 256/466/617 84/470/618 120/471/619
f 258/472/620 257/467/616 120/471/619 103/473/621
s 3
f 259/474/622 258/472/623 103/473/624 139/475/625
f 260/157/626 259/175/622 139/176/625 101/166/627
f 261/150/628 260/157/626 101/166/627 99/158/629
f 262/151/630 261/150/628 99/158/629 96/159/631
f 263/169/632 262/151/630 96/159/631 159/170/633
f 264/392/634 263/398/632 159/399/633 97/393/635
s 18
f 114/389/636 265/388/637 264/392/638 97/393/639
f 80/387/640 266/385/641 265/388/637 114/389/636
s off
f 16/386/642 267/384/643 266/385/644 80/387/645
s 15
f 268/98/646 267/97/647 16/100/648 18/101/649
f 269/102/650 268/98/646 18/101/649 23/103/651
s 58
f 270/599/652 269/598/653 23/602/654 217/603/655
f 271/604/656 270/599/652 217/603/655 213/607/657
f 272/608/658 271/604/656 213/607/657 200/609/659
s 43
f 382/508/660 272/509/661 200/513/662 381/514/663
s 60
f 212/639/664 274/634/665 273/638/666 201/640/667
f 216/636/668 275/633/669 274/634/665 212/639/664
f 186/635/670 276/632/671 275/633/669 216/636/668
s 52
f 277/253/672 276/254/673 186/241/674 178/247/675
s 16
f 278/252/676 277/253/677 178/247/678 176/246/679
f 279/258/680 278/252/676 176/246/679 177/251/681
s 42
f 184/681/682 280/682/683 279/683/684 177/684/685
f 33/317/686 281/307/687 375/319/688 376/329/689
s 9
f 33/317/690 152/304/691 282/296/692 281/307/693
f 152/304/691 34/305/694 283/297/695 282/296/692
f 34/305/694 35/316/696 284/306/697 283/297/695
f 35/316/696 36/328/698 285/318/699 284/306/697
f 36/328/698 132/339/700 286/330/701 285/318/699
f 132/339/700 37/348/702 287/341/703 286/330/701
s 33
f 288/350/704 287/341/705 37/348/706 239/357/707
f 289/358/708 288/350/704 239/357/707 226/362/709
f 290/363/710 289/358/708 226/362/709 190/365/711
f 291/685/712 290/686/710 190/687/711 167/688/713
s 14
f 292/271/714 291/277/715 167/272/716 168/263/717
f 293/270/718 292/271/714 168/263/717 169/262/719
s 53
f 188/255/720 294/269/721 293/270/722 169/262/723
s 56
f 295/567/724 294/566/725 188/570/726 210/571/727
f 296/572/728 295/567/724 210/571/727 206/573/729
f 247/575/730 296/572/728 206/573/729 198/576/731
s 36
f 248/490/591 298/484/392 297/487/395 247/491/592
f 249/677/595 299/673/587 298/675/392 248/678/591
f 250/676/597 300/670/584 299/673/587 249/677/595
s 54
f 251/541/599 301/536/514 300/540/517 250/544/600
f 252/538/603 302/534/481 301/536/514 251/541/599
f 253/537/605 303/531/478 302/534/481 252/538/603
s 13
f 304/122/152 303/126/151 253/129/607 254/127/606
f 305/123/153 304/122/152 254/127/606 255/128/610
s off
f 306/440/732 305/441/733 255/439/734 256/438/735
s 22
f 307/464/265 306/463/264 256/466/617 257/467/616
f 308/468/313 307/464/265 257/467/616 258/472/620
s 3
f 309/202/30 308/201/29 258/203/623 259/204/622
f 310/206/26 309/202/30 259/204/622 260/207/626
f 311/144/24 310/149/26 260/157/626 261/150/628
f 312/145/21 311/144/24 261/150/628 262/151/630
f 313/136/22 312/135/21 262/137/630 263/138/632
f 314/140/362 313/136/22 263/138/632 264/141/634
s 18
f 265/388/637 315/396/250 314/397/300 264/392/638
f 266/460/641 316/456/247 315/459/250 265/461/637
s off
f 267/384/736 317/380/737 316/383/738 266/385/739
s 15
f 318/94/176 317/93/178 267/97/647 268/98/646
f 319/99/177 318/94/176 268/98/646 269/102/650
s 58
f 320/596/496 319/595/495 269/598/653 270/599/652
f 321/600/535 320/596/496 270/599/652 271/604/656
f 322/605/536 321/600/535 271/604/656 272/608/658
s 43
f 382/508/660 365/506/422 322/505/421 272/509/661
s 60
f 274/634/665 324/631/526 323/637/529 273/638/666
f 275/633/669 325/629/505 324/631/526 274/634/665
f 276/632/671 326/626/502 325/629/505 275/633/669
s 52
f 327/260/458 326/261/457 276/254/673 277/253/672
s 16
f 328/259/173 327/260/175 277/253/677 278/252/676
f 329/265/174 328/259/173 278/252/676 279/258/680
s 42
f 280/342/683 330/338/444 329/351/447 279/352/684
f 281/307/687 331/302/416 374/315/419 375/319/688
s 9
f 281/307/693 282/296/692 332/292/71 331/302/347
f 282/296/692 283/297/695 333/293/72 332/292/71
f 283/297/695 284/306/697 334/298/75 333/293/72
f 284/306/697 285/318/699 335/308/77 334/298/75
f 285/318/699 286/330/701 336/320/79 335/308/77
f 286/330/701 287/341/703 337/332/80 336/320/79
s 33
f 338/343/566 337/332/565 287/341/705 288/350/704
f 339/353/381 338/343/566 288/350/704 289/358/708
f 340/359/382 339/353/381 289/358/708 290/363/710
f 341/366/468 340/359/382 290/363/710 291/367/712
s 14
f 342/276/149 341/281/148 291/277/715 292/271/714
f 343/275/150 342/276/149 292/271/714 293/270/718
s 53
f 294/269/721 344/274/460 343/275/463 293/270/722
s 56
f 345/564/488 344/563/487 294/566/725 295/567/724
f 346/568/523 345/564/488 295/567/724 296/572/728
f 297/574/524 346/568/523 296/572/728 247/575/730
s 43
f 348/654/740 347/657/741 323/658/742 202/656/743
s 61
f 211/655/744 349/651/745 348/654/746 202/656/747
f 215/653/748 350/648/749 349/651/745 211/655/744
f 179/652/750 351/647/751 350/648/749 215/653/748
s 40
f 352/501/752 351/500/753 179/502/429 180/503/428
s 39
f 353/50/754 352/49/755 180/56/433 181/57/432
s 37
f 354/54/756 353/50/757 181/57/437 182/59/436
s 38
f 355/326/758 354/336/759 182/347/441 183/337/440
s 42
f 356/327/760 355/326/761 183/337/445 330/338/444
f 357/331/762 356/327/760 330/338/444 280/342/683
f 358/340/763 357/331/762 280/342/683 184/349/682
s 41
f 359/234/764 358/239/765 184/245/449 185/240/448
s 44
f 360/235/766 359/234/767 185/240/453 186/241/452
s 59
f 361/615/768 360/614/769 186/618/770 216/619/771
f 362/620/772 361/615/768 216/619/771 212/623/773
f 363/624/774 362/620/772 212/623/773 201/625/775
s 43
f 273/661/776 364/660/777 363/662/778 201/663/779
f 323/658/742 347/657/741 364/660/777 273/661/776
f 366/507/423 365/506/422 347/510/741 348/511/740
s 61
f 349/651/745 367/646/538 366/650/541 348/654/746
f 350/648/749 368/644/509 367/646/538 349/651/745
f 351/647/751 369/641/506 368/644/509 350/648/749
s 40
f 370/499/411 369/498/410 351/500/753 352/501/752
s 39
f 371/44/407 370/43/406 352/49/755 353/50/754
s 37
f 372/47/399 371/44/398 353/50/757 354/54/756
s 38
f 373/314/403 372/325/402 354/336/759 355/326/758
s 42
f 374/315/419 373/314/418 355/326/761 356/327/760
f 375/319/688 374/315/419 356/327/760 357/331/762
f 376/329/689 375/319/688 357/331/762 358/340/763
s 41
f 377/228/415 376/233/414 358/239/765 359/234/764
s 44
f 378/229/427 377/228/426 359/234/767 360/235/766
s 59
f 379/612/500 378/611/499 360/614/769 361/615/768
f 380/616/531 379/612/500 361/615/768 362/620/772
f 381/621/532 380/616/531 362/620/772 363/624/774
s 43
f 364/660/777 382/664/660 381/665/663 363/662/778
f 364/512/777 347/510/741 365/506/422 382/508/660
s off
f 29/689/780 30/690/781 384/691/782 383/692/783
f 35/695/784 34/693/785 386/694/786 385/696/787
f 34/693/788 29/689/789 383/692/790 386/694/791
f 30/697/792 31/698/793 387/699/794 384/700/795
f 31/698/796 36/701/797 388/702/798 387/699/799
f 36/701/800 35/703/801 385/704/802 388/702/803
f 383/287/804 384/288/805 390/284/806 389/283/807
f 385/705/808 386/706/809 392/707/810 391/708/811
f 386/711/812 383/712/813 389/713/814 392/714/815
f 384/288/816 387/291/817 393/289/818 390/284/819
f 387/715/820 388/716/821 394/717/822 393/718/823
f 388/709/824 385/705/825 391/708/826 394/710/827
s 72
f 395/719/828 396/720/829 426/721/830 421/722/831
s 73
f 396/725/832 397/726/833 425/727/834 426/728/835
s 74
f 397/726/836 398/729/837 424/730/838 425/727/839
s 75
f 398/734/840 399/735/841 423/736/842 424/737/843
s 76
f 399/740/844 400/741/845 422/742/846 423/743/847
s 77
f 400/741/848 395/744/849 421/745/850 422/742/851
s 78
f 396/749/852 395/750/853 407/751/854
f 397/753/855 396/749/852 407/751/854
f 398/755/856 397/753/855 407/751/854
f 399/754/857 398/755/856 407/751/854
f 400/752/858 399/754/857 407/751/854
f 395/750/853 400/752/858 407/751/854
s 79
f 401/756/859 402/757/860 408/758/861
f 402/757/860 403/759/862 408/758/861
f 403/759/862 404/761/863 408/758/861
f 404/761/863 405/762/864 408/758/861
f 405/762/864 406/760/865 408/758/861
f 406/760/865 401/756/859 408/758/861
s off
f 410/763/866 409/764/867 401/765/868 406/766/869
f 411/769/870 410/763/871 406/766/872 405/770/873
f 412/775/874 411/776/875 405/777/876 404/778/877
f 413/783/878 412/784/879 404/785/880 403/786/881
f 414/789/882 413/783/883 403/786/884 402/790/885
f 409/795/886 414/796/887 402/797/888 401/798/889
f 428/772/890 427/773/891 429/768/892 430/767/893
f 431/774/894 428/772/895 430/767/896 432/771/897
f 433/781/898 431/782/899 432/780/900 434/779/901
f 435/792/902 433/793/903 434/788/904 436/787/905
f 437/794/906 435/792/907 436/787/908 438/791/909
f 427/801/910 437/802/911 438/800/912 429/799/913
s 77
f 422/742/851 421/745/850 415/748/914 416/746/915
s 76
f 423/743/847 422/742/846 416/746/916 417/747/917
s 75
f 424/737/843 423/736/842 417/738/918 418/739/919
s 74
f 425/727/839 424/730/838 418/733/920 419/731/921
s 73
f 426/728/835 425/727/834 419/731/922 420/732/923
s 72
f 421/722/831 426/721/830 420/723/924 415/724/925
s off
f 416/803/926 415/804/927 427/805/928 428/806/929
f 409/764/930 410/763/931 430/767/932 429/768/933
f 417/807/934 416/803/935 428/806/936 431/808/937
f 410/763/938 411/769/939 432/771/940 430/767/941
f 418/809/942 417/810/943 431/811/944 433/812/945
f 411/776/946 412/775/947 434/779/948 432/780/949
f 419/813/950 418/814/951 433/815/952 435/816/953
f 412/784/954 413/783/955 436/787/956 434/788/957
f 420/817/958 419/813/959 435/816/960 437/818/961
f 413/783/962 414/789/963 438/791/964 436/787/965
f 415/819/966 420/820/967 437/821/968 427/822/969
f 414/796/970 409/795/971 429/799/972 438/800/973
s 80
f 439/823/974 440/824/975 470/825/976 465/826/977
s 81
f 440/829/978 441/830/979 469/831/980 470/832/981
s 82
f 441/830/982 442/833/983 468/834/984 469/831/985
s 83
f 442/838/986 443/839/987 467/840/988 468/841/989
s 84
f 443/844/990 444/845/991 466/846/992 467/847/993
s 85
f 444/845/994 439/848/995 465/849/996 466/846/997
s 86
f 440/853/998 439/854/999 451/855/1000
f 441/857/1001 440/853/998 451/855/1000
f 442/859/1002 441/857/1001 451/855/1000
f 443/858/1003 442/859/1002 451/855/1000
f 444/856/1004 443/858/1003 451/855/1000
f 439/854/999 444/856/1004 451/855/1000
s 87
f 445/860/1005 446/861/1006 452/862/1007
f 446/861/1006 447/863/1008 452/862/1007
f 447/863/1008 448/865/1009 452/862/1007
f 448/865/1009 449/866/1010 452/862/1007
f 449/866/1010 450/864/1011 452/862/1007
f 450/864/1011 445/860/1005 452/862/1007
s off
f 454/867/1012 453/868/1013 445/869/1014 450/870/1015
f 455/873/1016 454/867/1017 450/870/1018 449/874/1019
f 456/879/1020 455/880/1021 449/881/1022 448/882/1023
f 457/887/1024 456/888/1025 448/889/1026 447/890/1027
f 458/893/1028 457/887/1029 447/890/1030 446/894/1031
f 453/899/1032 458/900/1033 446/901/1034 445/902/1035
f 472/876/1036 471/877/1037 473/872/1038 474/871/1039
f 475/878/1040 472/876/1041 474/871/1042 476/875/1043
f 477/885/1044 475/886/1045 476/884/1046 478/883/1047
f 479/896/1048 477/897/1049 478/892/1050 480/891/1051
f 481/898/1052 479/896/1053 480/891/1054 482/895/1055
f 471/905/1056 481/906/1057 482/904/1058 473/903/1059
s 85
f 466/846/997 465/849/996 459/852/1060 460/850/1061
s 84
f 467/847/993 466/846/992 460/850/1062 461/851/1063
s 83
f 468/841/989 467/840/988 461/842/1064 462/843/1065
s 82
f 469/831/985 468/834/984 462/837/1066 463/835/1067
s 81
f 470/832/981 469/831/980 463/835/1068 464/836/1069
s 80
f 465/826/977 470/825/976 464/827/1070 459/828/1071
s off
f 460/907/1072 459/908/1073 471/909/1074 472/910/1075
f 453/868/1076 454/867/1077 474/871/1078 473/872/1079
f 461/911/1080 460/907/1081 472/910/1082 475/912/1083
f 454/867/1084 455/873/1085 476/875/1086 474/871/1087
f 462/913/1088 461/914/1089 475/915/1090 477/916/1091
f 455/880/1092 456/879/1093 478/883/1094 476/884/1095
f 463/917/1096 462/918/1097 477/919/1098 479/920/1099
f 456/888/1100 457/887/1101 480/891/1102 478/892/1103
f 464/921/1104 463/917/1105 479/920/1106 481/922/1107
f 457/887/1108 458/893/1109 482/895/1110 480/891/1111
f 459/923/1112 464/924/1113 481/925/1114 471/926/1115
f 458/900/1116 453/899/1117 473/903/1118 482/904/1119
